"SELECT VOPCTRY1, VOPCITY1, VOPID, count(*)",,,
FROM vouchandqueue,,,
"WHERE VCHPQBATH BETWEEN date(""01/01/2006"") and date(""12/31/2006"")  ",,,
"and basesys = ""USA""",,,
"group by 1,2,3",,,
order by 4 desc,,,




vopctry1,vopcity1,vopid,(count(*))
IT,ROME,ECR,15217
IT,FLORENCE,ECR,11335
IE,DUBLIN,ECR,8093
FR,PARIS,ECFP,8044
IT,MILAN,ECR,8013
IE,SHANNON,ECR,6883
US,CELLPHONES,AEU,5222
FR,NICE,ECFP,4756
IT,VENICE,ECR,4507
CH,ZURICH,ECR,4180
DE,FRANKFURT,AVS,3427
GB,LONDON,ECFP,3406
GB,LONDON,NCR,3286
FR,PARIS,ECR,2908
GB,LONDON,NCRWEB,2833
CH,GENEVA,ECR,2665
DE,MUNICH,AVS,2431
ES,MADRID,AVFP,2400
FR,AVIGNON,ECFP,2156
GB,LONDON,ECRWEB,2020
NL,AMSTERDAM,ECR,1901
FR,NICE,ECR,1801
ES,BARCELONA,AVFP,1801
IT,PISA,ECR,1787
IT,ROME,CIMACH,1784
FR,PARIS,NCR,1666
IT,NAPLES,ECR,1630
IT,PALERMO,ECR,1603
DE,FRANKFURT,ECR,1543
GR,ATHENS,ECR,1539
IT,ROME,AVS,1524
FR,PARIS,EXECHF,1509
FR,MARSEILLE,ECFP,1479
GB,LONDON,CITYCHF,1417
PT,LISBON,EC1FP,1408
ES,MADRID,ECFP,1404
ES,BARCELONA,ECFP,1343
AT,VIENNA,ECR,1315
IT,ROME,RTZ,1201
DE,MUNICH,ECR,1199
IT,SIENA,ECR,1152
PT,LISBON,ECFP,1106
DK,COPENHAGEN,ECR,1100
NL,AMSTERDAM,NCR,1087
GB,EDINBURGH,ECFP,1067
IT,FLORENCE,RTZ,1015
DE,FRANKFURT,NCR,1001
ES,MALAGA,AVFP,998
IT,CATANIA,ECR,975
ES,SEVILLA,AVFP,945
DE,FRANKFURT,RTZ,912
IT,FLORENCE,AVS,888
BE,BRUSSELS,ECR,880
GB,EDINBURGH,NCR,868
FR,BORDEAUX,ECFP,865
DE,FRANKFURT,ECFP,864
FR,NICE,NCR,843
GB,LONDON,ECR,826
NL,AMSTERDAM,RTZ,812
FR,TOULOUSE,ECFP,791
IT,MILAN,AVS,789
IE,SHANNON,ECRIK,779
PT,PORTO,EC1FP,771
FR,LYON,ECFP,754
IT,BOLOGNA,ECR,741
IE,DUBLIN,AVS,724
IT,FLORENCE,AER,724
SE,STOCKHOLM,AVS,722
ES,MALAGA,ECFP,721
FR,AVIGNON,ECR,719
IE,DUBLIN,ECRIK,718
IT,ROME,AVSA,715
IE,DUBLIN,NCR,687
FR,PARIS,RTZFP,679
IE,SHANNON,NCR,672
PT,LISBON,ECR,672
NO,OSLO,RTZFP,668
GB,GLASGOW,NCR,667
DE,MUNICH,ECFP,666
IT,ROME,ECSA,663
GB,GLASGOW,ECFP,660
IT,ROME,AER,657
GB,MANCHESTER,NCR,655
NL,AMSTERDAM,AVS,651
GB,MANCHESTER,NCRWEB,628
GR,ATHENS,AEU,626
IE,CORK,ECR,622
IT,MILAN,RTZ,618
NL,AMSTERDAM,NCRWEB,615
DE,MUNICH,RTZ,609
IT,SORRENTO,ECR,607
DE,MUNICH,NCR,597
HR,ZAGREB,SXT,595
CH,ZURICH,RTZ,590
IS,KEFLAVIK,AVS,589
FR,NICE,SPRCHF,557
FR,PARIS,PGT,538
GB,LONDON,RTZCA,524
FR,MARSEILLE,ECR,523
GB,MANCHESTER,ECFP,520
DE,BERLIN,AVS,507
IE,SHANNON,AVS,500
GB,EDINBURGH,ECRWEB,494
ES,SEVILLA,ECFP,493
IL,TEL AVIV,SHL,492
GB,GLASGOW,NCRWEB,490
GB,LONDON,RTZ,486
AU,SYDNEY,ECR,481
GB,EDINBURGH,NCRWEB,477
CS,PRAGUE,RTZ,470
IT,GENOA,ECR,469
DE,FRANKFURT,NCRSA,460
PT,LISBON,NCR,445
NZ,AUCKLAND,RTZ,440
SE,STOCKHOLM,ECR,435
CH,ZURICH,BGT,422
FR,MONTPELLIER,ECFP,418
IT,VENICE,AVS,417
AT,SALZBURG,ECR,412
IT,MILAN,CIMACH,410
DE,STUTTGART,AVS,409
DE,DUSSELDORF,AVS,408
ES,MADRID,ECR,406
IT,NAPLES,ADCHF,406
FR,TOURS,ECFP,402
GB,LONDON,AVS,398
CH,ZURICH,AVS,398
GB,MANCHESTER,ECRWEB,397
FR,NICE,RTZFP,392
IT,MILAN,AER,388
IT,FLORENCE,ECSA,385
ES,BARCELONA,BLAI,381
CH,GENEVA,RTZ,377
DE,FRANKFURT,AVSA,377
FR,GENEVA,ECFP,371
ES,MALLORCA,AVFP,370
CS,PRAGUE,BGT,368
IT,NAPLES,AVS,365
IT,FLORENCE,CIMACH,358
IT,CIVITAVECCHIA,ECR,356
GB,EDINBURGH,ECR,355
IT,VERONA,ECR,354
ZA,CAPETOWN,NCR2,346
AT,VIENNA,ECE,346
PT,LISBON,AVS,345
PU,ROME PGT,PGT,344
IT,VENICE,CIMACH,344
ES,BARCELONA,ECR,341
PT,LISBON,EC1,339
IT,BARI,ECR,339
FR,AVIGNON,NCR,338
BE,BRUSSELS,ECFP,338
DE,HAMBURG,AVS,337
AT,VIENNA,AVS,334
NL,AMSTERDAM,EUROCHF,330
DE,MUNICH,AVSA,328
AU,SYDNEY,RTZFP,327
IT,COMO,ECR,327
FR,AIX EN PROVENCE,ECFP,327
ES,SANTIAGO,EC1FP,325
IT,FLORENCE,AVSA,325
HR,DUBROVNIK,SXT,323
DE,FRANKFURT,SXT,322
IT,TURIN,ECR,320
IS,REYKJAVIK,AVS,320
IT,VENICE,RTZ,319
HU,BUDAPEST,ECR,319
GR,HERAKLION,ECR,318
DK,COPENHAGEN,AVS,317
FR,CAEN,ECFP,316
IB,BELFAST,ECR,310
FR,BORDEAUX,ECR,308
IE,GALWAY,ECR,306
IT,VENICE,AER,304
ZA,CAPETOWN,AVS,303
ZA,JOHANNESBURG,NCR2,294
GR,THESSALONIKI,ECR,294
BE,BRUSSELS,NCR,290
ES,SANTIAGO,EC1,288
GB,LONDON,ECRCHF,287
NZ,AUCKLAND,ECR,285
GB,GLASGOW,ECRWEB,278
DK,COPENHAGEN,RTZ,273
AU,BRISBANE,ECR,273
PU,MILAN PGT,PGT,273
IT,LUCCA,ECR,271
IT,LA SPEZIA,ECR,270
CH,LUGANO,ECR,268
FR,STRASBOURG,ECFP,268
GR,ATHENS,RTZ,264
DE,MUNICH,NCRSA,264
CH,BASEL,ECR,262
DE,MUNICH,AVE,261
ZA,JOHANNESBURG,AVS,257
IT,ORVIETO,RTZ,256
IT,CHIUSI,ECR,256
FR,MARSEILLE,NCR,255
IT,AREZZO,ECR,255
ES,GRANADA,AVFP,248
IT,NAPLES,RTZ,246
IT,OLBIA,ECR,246
DE,MUNICH,NCE,245
IB,BELFAST,NCR,245
IT,MILAN,ECSA,244
FR,PERPIGNAN,ECFP,242
IT,PERUGIA,ECR,239
CH,GENEVA,AVS,238
CS,PRAGUE,BGFP,237
DE,COLOGNE,AVS,237
HR,SPLIT,SXT,236
AU,MELBOURNE,ECR,235
FR,DIJON,ECFP,233
IT,MILAN,AVSA,231
PU,FRANKFURT PGT,PGT,230
DE,MUNICH,SXT,227
FR,CANNES,ECFP,226
CA,TORONTO,ALM,226
AU,CAIRNS,ECR,226
CH,GENEVA,BGT,224
DE,FRANKFURT,NCE,223
FR,LYON,ECR,221
DE,STUTTGART,ECR,220
DE,BERLIN,ECR,220
FR,NICE,PGT,218
CS,PRAGUE,AVS,216
GR,ATHENS,AECHF,214
PL,WARSAW,ECR,214
ES,SEVILLA,ECR,213
ES,BILBAO,AVFP,212
NZ,CHRISTCHURCH,RTZ,211
GR,ATHENS,ACR,211
PT,PORTO,ECFP,210
FR,TOULOUSE,ECR,208
ES,MALAGA,ECR,208
IT,ANCONA,ECR,206
CS,PRAGUE,ROYCHF,206
DE,FRANKFURT,AVE,205
FR,CALAIS,ECFP,202
GR,ATHENS,AEUNCR,201
ES,GRANADA,ECFP,195
GB,EDINBURGH,RTZ,194
AT,SALZBURG,AVS,193
FR,BORDEAUX,NCR,193
AU,MELBOURNE,RTZFP,190
GB,LONDON,NCRSQ,190
GB,BATH,NCR,189
IT,VENICE,ECE,189
GB,GLASGOW,ECR,187
CH,LAUSANNE,ECR,184
ES,SANTIAGO,AVFP,184
IE,DUBLIN,ECRCHF,183
ES,BILBAO,ECFP,183
IT,PALERMO,AVS,181
IT,TORINO,ECR,181
DE,DUSSELDORF,ECR,180
FR,LYON,NCR,180
CS,PRAGUE,BGE,179
FR,MONTE CARLO,ECFP,179
GB,STANSTED,NCRWEB,177
AU,SYDNEY,RTZ,176
IT,PISA,RTZ,172
DE,FRANKFURT,INTERLINE,172
FR,RENNES,ECFP,171
FR,BIARRITZ,ECFP,170
DE,FRANKFURT,NCRWEB,169
ES,MADRID,AEMCHF,166
PT,LISBON,AVFP,166
IT,FLORENCE,DERECR,165
PL,KRAKOW,ECR,164
GB,INVERNESS,ECFP,163
DE,BERLIN,AVE,163
BE,BRUSSELS,AVS,163
NO,BERGEN,RTZFP,161
IT,LAMEZIA TERME,ECR,160
PU,MUNICH PGT,PGT,160
NZ,CHRISTCHURCH,ECR,159
GR,SANTORINI,ECR,159
FR,NANTES,ECFP,155
FR,GENEVA,ECR,155
SE,GOTHENBURG,AVS,154
AT,VIENNA,AVE,154
FR,CARCASSONNE,ECFP,153
IT,SIENA,AVS,151
ES,CORDOBA,AVFP,150
IT,PALERMO,AER,149
ES,IBIZA,AVFP,149
GB,MANCHESTER,ECR,147
NO,OSLO,ECR,146
GB,OXFORD,NCR,145
IE,ROSSLARE,ECR,145
AT,VIENNA,RCVCHF,145
IT,PISA,AVS,144
FI,HELSINKI,ECR,143
HR,ZAGREB,NCR,142
AU,BRISBANE,RTZFP,141
NZ,QUEENSTOWN,RTZ,141
DE,FRANKFURT,DERNCR,141
CH,LUCERNE,ECR,141
HR,DUBROVNIK,NCR,140
FR,PARIS,DERECR,138
GB,BIRMINGHAM,NCRWEB,136
PU,LISBON PGT,PGT,136
PT,PORTO,EC1,135
GR,HERAKLION,AEU,135
PT,FARO,ECFP,134
DE,BERLIN,ECFP,133
PT,FUNCHAL,ECR,133
FI,HELSINKI,BGT,133
IB,BELFAST,AVS,131
IT,CHIUSI,RTZ,131
AT,INNSBRUCK,ECR,130
DE,HAMBURG,ECR,130
IE,DUBLIN,DERECR,129
IT,SORRENTO,AER,129
FR,TOULON,ECFP,126
CR,SAN JOSE,ECR,126
GB,BIRMINGHAM,NCR,126
IT,BERGAMO,ECR,126
HU,BUDAPEST,NCE,125
ES,SANTIAGO,ECFP,125
DE,MUNICH,NCRWEB,125
SE,MALMO,AVS,124
AU,CAIRNS,RTZFP,123
DE,BERLIN,RTZ,122
ES,SAN SEBASTIAN,AVFP,121
DE,COLOGNE,ECR,120
DE,DUSSELDORF,ECFP,120
GB,BRISTOL,NCR,120
BE,BRUSSELS,RTZ,119
FR,TOULOUSE,NCR,118
GR,CHANIA,ECR,118
GB,PRESTWICK,NCRWEB,118
DE,NUREMBERG,AVS,117
NZ,AUCKLAND,BGFP,116
GP,SAINT JEAN,ECR,116
FR,NIMES,ECFP,115
FR,MONTPELLIER,ECR,115
PT,PORTO,ECR,115
IT,CATANIA,AVS,114
IT,VENICE,ECSA,114
NO,OSLO,RTZ,113
FR,ROUEN,ECFP,113
FR,NICE,SXT,112
DE,DUSSELDORF,NCR,112
CH,BERN,ECR,112
FR,TOURS,ECR,110
DE,MUNICH,ECEFP,110
AU,MELBOURNE,RTZ,110
CH,ZURICH,AVE,110
IT,VENICE,AVSA,109
DE,STUTTGART,ECFP,109
GB,BRISTOL,ECFP,109
IT,ROME,DERECR,109
FR,ARLES,ECFP,108
DE,HANOVER,AVS,108
FR,CAEN,ECR,108
IT,SALERNO,ECR,108
MX,CANCUN,ECR,108
FR,AIX EN PROVENCE,ECR,107
HR,SPLIT,NCR,107
IT,CHIUSI,AVS,106
IT,PERUGIA,AVS,106
GB,MANCHESTER,AVS,106
FR,PARIS,DERNCR,106
PT,PORTO,NCR,105
DE,BERLIN,INTERLINE,105
FR,AVIGNON,RTZFP,104
DE,STUTTGART,RTZ,103
FR,GENEVA,PGT,103
CA,HALIFAX,ALM,103
FR,BASTIA,ECFP,103
DE,NUREMBERG,ECR,102
FR,AVIGNON,DERECR,101
GB,GLASGOW,RTZ,101
DE,MUNICH,DERNCR,101
GB,DOVER,ECFP,101
ES,VALENCIA,AVFP,100
GB,STANSTED,ECFP,100
IE,CORK,AVS,100
HU,BUDAPEST,AVS,100
IT,CAGLIARI,ECR,99
DE,BERLIN,NCE,99
PU,AMSTERDAM PGT,PGT,99
CS,PRAGUE,BGEFP,99
IE,DUBLIN,BGT,98
PT,LISBON,NCR1,98
CH,MONTREUX,ECR,98
SE,GOTHENBURG,ECR,97
GB,BIRMINGHAM,ECFP,96
BR,SAO PAULO,UNIDAS,96
CH,ZURICH,ECRCHF,96
GB,LONDON,DERECR,96
GB,BRISTOL,NCRWEB,96
FR,LIMOGES,ECFP,95
ZZ,BELGRADE,ECR,95
GB,LONDON,CITYLU,95
ZA,DURBAN,NCR2,95
DE,STUTTGART,NCR,94
GB,SOUTHAMPTON,NCR,94
TR,ISTANBUL,ECR,94
GB,BATH,NCRWEB,94
ES,MADRID,AVWEB,93
AT,VIENNA,BGT,93
MX,LORETO,ECR,93
GB,MANCHESTER,RTZCA,93
IE,SHANNON,EC1,92
DE,BERLIN,NCR,92
AT,INNSBRUCK,AVS,92
GR,RHODES,ECR,92
FR,BIARRITZ,NCR,91
GB,STANSTED,NCR,91
IT,MONTECATINI TERME,ECR,91
UA,KIEV,AVS,90
AU,HOBART,ECR,90
IT,VENICE,AVE,90
FR,PARIS,SXT,90
DE,DUSSELDORF,RTZ,90
IE,KILLARNEY,ECR,90
AU,PERTH,RTZFP,90
GB,LONDON,DERNCR,90
GB,ABERDEEN,NCRWEB,90
FR,ST. TROPEZ,ECFP,90
IE,CORK,NCR,89
IT,SAN REMO,ECR,88
FR,CALAIS,ECR,88
HU,BUDAPEST,BGT,88
ES,ALICANTE,AVFP,87
FR,AJACCIO,ECFP,87
BE,BRUSSELS,AVCHF,87
GR,CORFU,ECR,87
FR,GRENOBLE,ECFP,87
ES,MADRID,EC1FP,86
ES,JEREZ,AVFP,86
FR,BEZIERS,ECFP,86
FR,DIJON,ECR,86
SE,STOCKHOLM,RTZ,86
GB,GLASGOW,RTZCA,86
FR,VERSAILLES,ECFP,85
PU,BARCELONA PGT,PGT,85
IE,DUBLIN,EC1,84
GB,EDINBURGH,AVS,84
SI,LJUBLJANA,AVS,84
IT,TAORMINA,ECR,84
DE,GARMISCH,AVS,84
LU,LUXEMBOURG,AVS,84
SE,STOCKHOLM,FRYCHF,84
AU,ADELAIDE,RTZFP,83
ES,VALENCIA,ECFP,83
IT,NAPLES,AER,83
NZ,QUEENSTOWN,ECR,83
BE,BRUSSELS,SXT,83
GR,CHANIA,AEU,82
FR,MONTE CARLO,SPRCHF,82
GB,OXFORD,NCRWEB,82
IT,BRINDISI,ECR,81
IT,FLORENCE,DERAV,81
DE,BERLIN,AVSA,81
PU,MADRID PGT,PGT,80
ES,ALICANTE,ECFP,80
FR,CANNES,ECR,80
FR,BAYEUX,RTZFP,80
ES,GERONA,ECFP,80
FR,NICE,DERECR,79
DE,MUNICH,ECI,79
IT,PISA,AER,78
DE,HAMBURG,RTZ,78
IT,CATANIA,RTZ,78
IT,PESCARA,ECR,78
DE,HAMBURG,NCR,78
IT,NAPLES,AVSA,77
FR,BEAUNE,ECFP,77
CH,GENEVA,ECRCHF,77
GB,ABERDEEN,ECFP,77
IT,SORRENTO,ADCHF,77
IT,PALERMO,RTZ,77
FR,STRASBOURG,ECR,77
FR,BRIVE,ECFP,77
GB,EDINBURGH,RTZCA,76
IT,BOLOGNA,RTZ,76
DE,MUNICH,AVESA,76
PT,LISBON,AV1FP,76
FR,SARLAT LA CANEDA,ECFP,76
DE,KELSTERBACH,AVSA,75
AU,ADELAIDE,ECR,75
ES,GERONA,AVFP,75
PT,LISBON,UNICHF,74
ES,MADRID,EC1,74
HU,BUDAPEST,LSHCHF,74
GB,LUTON,NCRWEB,74
RO,BUCHAREST,THT,73
ES,SANTIAGO,AV1,73
IT,CATANIA,AER,73
IT,FIUMICINO,ECR,73
GB,LONDON,CITYL,73
FR,GENEVA,NCR,73
ES,BILBAO,ECR,73
DE,BREMEN,AVS,73
CH,LOCARNO,ECR,73
DE,FRANKFURT,DERECR,73
DE,KELSTERBACH,ECSA,72
GB,INVERNESS,ECRWEB,72
DE,DRESDEN,AVS,72
FR,MONTPELLIER,NCR,72
IT,ROME,RTZSA,72
NL,ROTTERDAM,ECR,71
CH,ZURICH,ELTCHF,71
NZ,CHRISTCHURCH,BGFP,71
FR,MARSEILLE,PGT,71
FR,BIARRITZ,RTZFP,71
DE,DUSSELDORF,AVSA,71
ES,SAN SEBASTIAN,ECFP,71
GB,BRISTOL,ECRWEB,71
FR,LE HAVRE,ECFP,71
GR,MYKONOS,ECR,70
GB,NEWCASTLE,NCRWEB,70
PL,WARSAW,BGT,70
IT,TRIESTE,ECE,70
DE,COLOGNE,ECFP,70
PT,FARO,ECR,69
IT,BOLOGNA,AVS,69
CA,MONTREAL,ALM,69
DE,FRANKFURT,ECIFP,69
IE,SHANNON,BGT,69
DE,FRANKFURT,DERAV,69
IT,AREZZO,AVS,69
FR,MARSEILLE,RTZFP,69
DE,MUNICH,INTERLINE,69
GB,MANCHESTER,RTZ,69
GB,EDINBURGH,LITTLS CHF,68
GB,STANSTED,ECRWEB,68
CH,ZURICH,ECFP,68
FR,PAU,ECFP,68
TR,ANTALYA,ECR,67
IT,PISA,AVSA,67
IT,VERONA,AVS,67
GB,COLWYN BAY,ECFP,66
GB,INVERNESS,RTZ,66
GR,KEFALONIA,ECR,66
CH,BASEL,RTZ,66
CH,INTERLAKEN,ECR,65
IE,SHANNON,DERECR,65
PU,ZURICH PGT,PGT,65
ES,PAMPLONA,AVFP,65
DE,FRANKFURT,ECI,65
DE,HAMBURG,ECFP,64
DE,NUREMBERG,ECFP,64
GB,ABERDEEN,NCR,64
DE,HEIDELBERG,ECR,64
BE,BRUGGE,ECR,64
AT,GRAZ,ECR,64
DE,MUNICH,ECIFP,63
HU,BUDAPEST,NCR,63
CH,GENEVA,ECFP,63
GB,YORK,ECFP,62
IE,CORK,ECRIK,62
PU,PORTO PGT,PGT,62
CS,PRAGUE,AVE,62
IT,TRIESTE,ECR,62
IT,COMO,AVS,61
TR,IZMIR,ECR,61
DO,SANTO DOMINGO,ECR,61
IT,FLORENCE,DERRTZ,61
GB,INVERNESS,NCR,61
LU,LUXEMBOURG,ECR,61
ES,OVIEDO,AVFP,61
GB,SOUTHAMPTON,ECFP,61
FR,LA ROCHELLE,ECFP,61
GB,ABERDEEN,ECRWEB,61
FR,MONTPELLIER,RTZFP,60
NZ,QUEENSTOWN,BGFP,60
CH,ZURICH,NCR,60
ZA,DURBAN,AVS,60
ES,LA CORUNA,AVFP,59
IT,SORRENTO,AVS,59
IT,MILAN,ECE,59
IT,PISA,ECSA,59
FR,BORDEAUX,RTZFP,59
DE,FRANKFURT,DERRTZ,59
GB,BIRMINGHAM,ECRWEB,59
IT,MILAN,DERECR,59
IT,SANTA  MARGHERITA,RTZ,59
NO,BERGEN,RTZ,58
IT,TREVISO,ECR,58
DK,COPENHAGEN,CPHCHF,58
IL,JERUSALEM,SHL,57
CY,LARNACA,SXT,57
AU,HOBART,RTZFP,57
ES,SANTIAGO,ECR,57
IE,DONEGAL,AVS,56
AU,CAIRNS,RTZ,56
FR,RENNES,ECR,56
DE,STUTTGART,AVSA,56
BR,RIO DE JANEIRO,UNIDAS,56
DE,DUSSELDORF,INTERLINE,56
HR,DUBROVNIK,ECR2,56
SI,LJUBLJANA,RTZ,55
FR,LYON,RTZFP,55
DE,MUNICH,ECE,55
NO,STAVANGER,RTZFP,55
IT,ROME,DERAV,55
GB,MANCHESTER,NCRSQ,55
ES,MADRID,RTZ,54
FR,PARIS,ECE,54
IT,MILAN,EXCLUSIVE,54
NZ,PICTON,RTZ,54
FR,VALENCE,ECFP,54
ES,BARCELONA,RTZ,54
FR,AJACCIO,ECR,53
CH,ST. MORITZ,ECR,53
GB,NEWCASTLE,NCR,53
FR,CHARTRES,ECFP,53
PT,PORTO,AVS,53
IT,CHIAVARI,ECR,53
GR,PIRAEUS,RTZ,53
JM,MONTEGO BAY,ISL,53
IT,SIENA,RTZ,52
DE,FRANKFURT,ECE,52
FR,PERPIGNAN,ECR,52
IE,SHANNON,DERNCR,52
NL,AMSTERDAM,AVE,52
SI,LJUBLJANA,NCR,52
GB,PRESTWICK,NCR,52
CH,ZURICH,DERECR,52
NO,KRISTIANSAND,RTZFP,52
DE,MUNICH,ECSA,52
FR,ANGOULEME,ECFP,51
DE,FRANKFURT,ECEFP,51
IT,LIVORNO,ECR,51
AR,BUENOS AIRES,THT,51
FR,LILLE,ECFP,51
FR,BREST,ECFP,51
DE,HAMBURG,AVSA,51
DE,MUNICH,DERAV,51
ES,BARCELONA,AVWEB,51
GB,PRESTWICK,ECRWEB,51
CH,LUGANO,RTZ,50
ES,SOUTH TENERIFE,AVFP,50
IT,MESSINA,ECR,50
FR,CHERBOURG,ECFP,50
FR,AVIGNON,PGT,50
IT,SALERNO,AVS,50
ZA,PORT ELIZABETH,AVS,49
AU,PERTH,RTZ,49
CH,ZERMATT TAESCH,RTZ,49
IT,PALERMO,ECSA,49
SE,MALMO,ECR,49
ES,NORTH TENERIFE,AVFP,49
GB,EDINBURGH,DERECR,49
NZ,WELLINGTON,RTZ,49
FR,MULHOUSE,ECFP,49
FR,CALAIS,RTZFP,49
FR,MONTE CARLO,ECR,49
HU,BUDAPEST,ECE,49
HR,SPLIT,ECR2,48
GB,SOUTHAMPTON,ECRWEB,48
FR,ANNECY,ECFP,48
HR,RIJEKA,SXT,48
PT,PORTO,NCR1,48
NZ,NELSON,RTZ,48
NZ,ROTORUA,RTZ,48
RO,BUCHAREST,ECR,48
GB,CARDIFF,ECFP,47
CH,ZUG,ECR,47
AU,BRISBANE,RTZ,47
ES,MALAGA,DERECR,47
LT,VILNIUS,AVS,47
ES,MADRID,DERECR,47
BE,BRUSSELS,DERECR,47
GB,GLASGOW,LITTLS CHF,47
RO,BUCHAREST,SLSCHF,47
IE,DUBLIN,DERAV,46
SK,KOSICE,RTZ,46
IT,REGGIO CALABRIA,ECR,46
DE,RAMSTEIN,AVS,46
GB,EDINBURGH,NCRSQ,46
ES,CORDOBA,ECFP,46
IE,DUBLIN,DERNCR,46
TR,ISTANBUL,AECHF,46
HR,PULA,SXT,45
FR,BRIVE,ECR,45
DK,AARHUS,ECR,45
ZA,CAPETOWN,BGT,45
FR,LYON,PGT,45
DE,MUENSTER,AVS,45
ES,SEVILLA,AVWEB,45
IE,DUBLIN,THT,45
FR,ST. MALO,ECFP,44
ZA,PORT ELIZABETH,NCR2,44
FR,MARSEILLE,SPRCHF,44
IT,GROSSETO,ECR,44
IT,ROME,DERRTZ,44
IT,LUCCA,AVS,44
DE,MUNICH,DERECR,44
GB,PRESTWICK,ECFP,44
FR,BERGERAC,ECFP,44
HR,ZAGREB,ECR2,44
GB,CAMBRIDGE,NCRWEB,43
IT,GENOA,MATCHF,43
IT,SIENA,AVSA,43
GB,GLASGOW,AVS,43
ES,VIGO,AVFP,43
IT,ALGHERO,ECR,43
DE,BERLIN,ECE,43
FR,RENNES,NCR,43
EU,TRAVEL GUARD,CDW,43
IE,KNOCK,NCR,43
CH,GENEVA,ELTCHF,43
FR,DEAUVILLE,ECFP,43
IT,RIMINI,ECR,42
IT,NAPLES,ECSA,42
CH,CHUR,ECR,42
GR,HERAKLION,RTZ,42
GB,CAMBRIDGE,NCR,42
ES,ALGECIRAS,AVFP,42
DE,STUTTGART,SXT,42
IE,KNOCK,ECR,42
FR,NICE,DERNCR,42
GB,DOVER,ECRWEB,42
FR,LE MANS,ECFP,42
DE,MUNICH,DERRTZ,41
GB,EXETER,NCR,41
GB,LONDON,ECFLYFP,41
DE,BERLIN,NCRSA,41
NZ,GREYMOUTH,ECR,41
DE,KELSTERBACH,ECIFP,41
ES,TOLEDO,AVFP,41
IT,VIAREGGIO,ECR,41
AT,VIENNA,DERECR,41
IT,ROME,ECE,41
IT,SORRENTO,RTZ,41
IT,ROME,ECFLY,41
LU,LUXEMBOURG,RTZ,40
NL,AMSTERDAM,DERNCR,40
GB,EDINBURGH,DERNCR,40
CR,SAN JOSE,THT,40
PU,LONDON PGT,PGT,40
IT,PARMA,ECR,40
PR,SAN JUAN,THT,40
BA,SARAJEVO,SXT,40
IT,SPOLETO,AVS,40
AT,KLAGENFURT,ECR,40
ES,SANTANDER,AVFP,40
ES,SEVILLA,RTZ,40
IT,MILAN,DERAV,40
FR,TOULOUSE,RTZFP,40
ES,SANTANDER,ECFP,39
NL,DEN HAAG,ECR,39
DE,MUNICH,RTZE,39
IT,PERUGIA,RTZ,39
IT,PADOVA,ECR,39
GB,OXFORD,ECFP,39
FR,BORDEAUX,PGT,39
FR,BLOIS,ECFP,39
DE,FREIBURG,AVS,39
ES,GRANADA,ECR,39
GB,STRANRAER,RTZ,39
FR,LYON,A&TCHF,39
FR,LORIENT,ECFP,39
DE,HEIDELBERG,ECFP,39
DE,NUREMBERG,RTZ,39
DE,FRANKFURT,ECSA,39
FR,PARIS,ECFLY,39
GB,SOUTHAMPTON,NCRWEB,39
FR,CARCASSONNE,ECR,39
FR,ST. RAPHAEL,ECFP,38
CS,OSTRAVA,RTZ,38
FR,NICE,ECRLX,38
CH,GENEVA,ELT,38
FR,TOULOUSE,PGT,38
IT,BOLOGNA,AER,38
DE,DUSSELDORF,NCRSA,38
IT,VITERBO,ECR,38
IE,SLIGO,AVS,38
FR,AVIGNON,DERNCR,38
GB,LIVERPOOL,NCRWEB,38
GB,GLASGOW,DERECR,37
FR,AIX EN PROVENCE,RTZFP,37
DO,PUNTA CANA,ECR,37
DE,COLOGNE,AVSA,37
ZA,JOHANNESBURG,BGT,37
FR,NANCY,ECFP,37
CH,GENEVA,NCR,37
FR,BASEL,ECFP,37
FR,ANGERS,ECR,37
FR,ROUEN,ECR,36
DE,MUENSTER,ECFP,36
FR,AUXERRE,ECFP,36
FR,REIMS,ECFP,36
GB,LIVERPOOL,NCR,36
IE,KERRY,AVS,36
DE,FRANKFURT,ECSAFP,36
IE,SHANNON,THT,36
MX,SAN JOSE DEL CABO,ECR,35
IT,CIVITAVECCHIA,RTZ,35
BE,CHARLEROI,ECR,35
AT,GRAZ,AVS,35
AT,SALZBURG,BGT,35
ES,MALAGA,RTZ,35
NO,BERGEN,ECR,35
GB,INVERNESS,AVS,35
DE,FRANKFURT,RTZE,35
IT,SIRACUSA,ECR,35
DE,COLOGNE,RTZ,35
HR,DUBROVNIK,RTZ,35
CH,LAUSANNE,RTZ,35
ES,SEVILLA,DERECR,35
GB,NEWCASTLE,ECRWEB,35
GR,MYKONOS,RTZ,35
IT,VICENZA,ECR,34
CH,BASEL,AVS,34
IT,VENICE,DERECR,34
GB,EXETER,ECFP,34
FR,ST. TROPEZ,ECR,34
NZ,KERIKERI,RTZ,34
GB,OXFORD,RTZ,34
ES,BARCELONA,DERECR,34
DE,COLOGNE,NCR,34
GB,SOUTHAMPTON,AVS,34
FR,NANTES,ECR,34
LV,RIGA,AVS,34
PT,LISBON,DERECR,34
MX,PUERTO VALLARTA,ECR,34
GB,BATH,ECFP,34
GR,HERAKLION,ACR,34
ES,VIGO,ECFP,33
GB,YORK,NCR,33
FR,NICE,ELT,33
GR,MYCONOS,ECR,33
GR,THESSALONIKI,AEUNCR,33
GR,SALONICA,ECR,33
JM,KINGSTON,ISL,33
MX,MEXICO CITY,ECR,33
IT,ALBA,ECR,33
CH,INTERLAKEN,AVS,33
DE,DRESDEN,ECR,33
PT,FARO,EC1FP,33
IT,AREZZO,RTZ,33
GR,MYTILINI,ECR,32
IS,AKUREYRI,AVS,32
FR,ARLES,ECR,32
IE,SHANNON,DERAV,32
IT,LAMEZIA TERME,AVS,32
FR,CAEN,RTZFP,32
DE,STUTTGART,NCRSA,32
IT,GENOA,RTZ,32
FR,PARIS,BGT,32
IT,LA SPEZIA,AVS,32
CA,CALGARY,BGT,32
DE,MUNICH,SXTEAST,32
DE,HEIDELBERG,AVS,32
ES,MADRID,DERAV,32
IT,CATANIA,AVSA,32
IT,SAVONA,ECR,32
DE,MAINZ,AVS,32
GB,BRIGHTON,NCR,32
EE,TALLINN,AVS,32
GR,PATRAS,ECR,32
FR,BORDEAUX,DERECR,32
DK,AALBORG,ECR,32
HR,ZADAR,SXT,31
AT,SALZBURG,AVE,31
HR,SPLIT,RTZ,31
NL,AMSTERDAM,NCE,31
MT,MALTA,ECR,31
FR,NICE,ECLXFP,31
FR,CALVI,ECR,31
IT,BARI,AVS,31
GB,LUTON,NCR,31
IT,STRESA,AVS,31
CH,KLOTEN,ECR,31
FR,POITIERS,ECFP,31
BG,SOFIA,AVS,31
GR,RHODES,AEU,31
FR,ANGERS,ECFP,31
DE,MUNICH,ECSAFP,31
IT,MILAN,DERRTZ,31
GB,GLASGOW,NCRSQ,31
IT,MILAN,ECFLY,31
IT,ASTI,ECR,31
IT,CATANIA,ECSA,31
EE,TALLINN,ECR,31
NL,EINDHOVEN,ECR,30
ES,MENORCA,AVFP,30
DK,BILLUND,ECR,30
MT,MALTA,NCR,30
IE,GALWAY,AVS,30
DE,FRANKFURT,AVESA,30
FR,ORLEANS,ECFP,30
IT,MILAN,ELT,30
IE,KERRY,NCR,30
DE,RAMSTEIN,ECFP,30
ZA,GEORGE,AVS,30
ZA,GEORGE,NCR2,30
IT,TAORMINA,AER,30
SI,LJUBLJANA,ECR,30
GB,LLANDUDNO,AVS,30
GB,PENZANCE,ECFP,30
IT,IVREA,ECR,30
FR,ROUEN,RTZFP,30
FR,RODEZ,ECFP,30
DE,BERLIN,ECEFP,29
FR,CAEN,NCR,29
DE,HANOVER,ECR,29
DE,HEIDELBERG,RTZ,29
IT,VERONA,RTZ,29
FR,COLMAR,ECFP,29
PT,PONTA DELGADA,ILHA,29
DE,LEIPZIG,AVS,29
FR,CALAIS,PGT,29
IT,TURIN,AVS,29
PU,BRUSSELS PGT,PGT,29
IT,TRIESTE,AVE,29
RU,MOSCOW,ECR,29
IT,MESTRE,ECR,29
EU,INSURANCE,CDW1,29
PL,KRAKOW,BGT,29
AU,DARWIN,ECR,28
CA,OTTAWA,ALM,28
AU,PERTH,ECR,28
GB,DOVER,RTZ,28
FR,MENTON,ECFP,28
DE,BERLIN,SXT,28
ZA,NELSPRUIT,AVS,28
IT,FLORENCE,ECE,28
GB,STANSTED,ECR,28
FR,BIARRITZ,ECR,28
IT,GENOA,AVS,28
PT,PORTO,AV1FP,28
GB,LIVERPOOL,ECFP,28
ES,VIGO,EC1FP,28
GB,CARDIFF,NCR,28
DE,MAINZ,ECR,28
IT,LECCE,ECR,28
GB,LIVERPOOL,ECRWEB,27
FR,MARSEILLE,DERECR,27
DE,BREMEN,ECFP,27
IT,MILAN,AVE,27
DE,KAISERSLAUTERN,AVS,27
AU,ADELAIDE,RTZ,27
FR,CAEN,DERECR,27
DE,NUREMBERG,NCR,27
DE,COLOGNE,INTERLINE,27
IE,SHANNON,ECRCHF,27
FR,VANNES,ECFP,27
PU,LONDON PGT,PGTRH,27
ES,BARCELONA,LIMORENT,27
TR,KAYSERI,ECR,27
ES,ORENSE,EC1FP,27
NO,TROMSOE,RTZFP,27
GB,YORK,ECRWEB,27
GB,NEWCASTLE,ECFP,26
FR,CHERBOURG,RTZFP,26
CH,BASEL,ELTCHF,26
ES,MADRID,AV1,26
DE,BREMEN,ECR,26
UY,MONTEVIDEO,ECR,26
GB,BIRMINGHAM,RTZ,26
IT,FLORENCE,RTZSA,26
CH,ST. GALLEN,ECR,26
GB,NORWICH,NCR,26
DE,KOBLENZ,ECR,26
TR,DALAMAN,ECR,26
HR,ZAGREB,ECR,26
FR,NARBONNE,ECFP,26
HR,ZAGREB,RTZ,26
GR,SANTORINI,ACR,26
DE,HAMBURG,NCRSA,26
BE,BRUGGE,ECFP,26
NO,TRONDHEIM,RTZFP,26
GB,STIRLING,ECFP,26
GB,EAST MIDLANDS,NCRWEB,26
ES,VALENCIA,ECR,26
ES,MARBELLA,AVFP,26
IT,FOGGIA,ECR,25
NZ,NELSON,ECR,25
GB,LEEDS,ECRWEB,25
ES,LANZAROTE,AVFP,25
GB,LANCASTER,NCR,25
IT,BOLZANO,ECR,25
PT,PONTA DELGADA,AVS,25
CH,ZURICH,ELT,25
IT,FOLIGNO,AVS,25
FR,LILLE,ECR,25
IT,LIVORNO,AER,25
ES,MALAGA,DERAV,25
GB,STRATFORD UPON AVON,RTZ,25
IT,ROME,AVE,25
IT,ANCONA,AVS,25
DE,MANNHEIM,ECR,25
ES,LAS PALMAS,AVFP,25
DE,KARLSRUHE,ECFP,25
NZ,KERIKERI,BGFP,25
FR,CALAIS,NCR,25
GR,IGOUMENITSA,ECR,25
IT,CIVITAVECCHIA,AVS,25
FR,CHAMBERY,ECFP,25
CA,VANCOUVER,BGT,25
GB,OXFORD,ECRWEB,25
DE,FREIBURG,ECR,25
GB,LEEDS,ECFP,25
DE,BERLIN,RTZE,25
IT,BARI,RTZ,24
DE,KARLSRUHE,AVS,24
FR,TOULON,RTZFP,24
DE,FUESSEN,ECR,24
GB,INVERNESS,NCRWEB,24
GR,ATHENS,DERECR,24
ES,MALAGA,AVWEB,24
GB,BATH,RTZ,24
HR,OPATIJA,SXT,24
SK,BRATISLAVA,RTZ,24
IT,CAGLIARI,AVS,24
IT,TORINO,RTZ,24
GB,BIRMINGHAM,AVS,24
FR,NANTES,NCR,24
CS,BRNO,RTZ,24
AU,LAUNCESTON,ECR,24
CR,LIBERIA,ECR,24
FR,LIMOGES,ECR,24
FR,MONTPELLIER,PGT,24
DE,HAMBURG,SXT,24
NZ,NELSON,BGFP,24
ES,ALICANTE,ECR,24
BE,ANTWERP,ECR,24
IT,FROSINONE,ECR,24
IT,TORINO,AVS,24
PT,TERCEIRA,ILHA,24
ZA,DURBAN,BGT,24
FR,FIGARI,ECFP,24
DE,HAHN,AVS,24
PT,PORTO,AVFP,24
DE,COLOGNE,SXT,24
HR,DUBROVNIK,ECE2,24
DE,BERLIN,NCRWEB,24
FR,CANNES,SPRCHF,24
GB,LONDON,SXT,23
ES,SALAMANCA,AVFP,23
DE,HAHN,ECR,23
ES,ALMERIA,ECFP,23
FR,VERSAILLES,ECR,23
GR,PAROS,ECR,23
DE,HANOVER,NCR,23
FR,BEAUVAIS,ECFP,23
FR,ANNECY,ECR,23
ES,BARCELONA,DERAV,23
FR,DINARD,ECFP,23
IT,MILAN,RTZSA,23
FR,BERGERAC,RTZFP,23
GB,DOVER,ECR,23
PL,GDANSK,ECR,23
DE,RAMSTEIN,RTZ,23
FR,MONTELIMAR,ECFP,23
AU,ALICE SPRINGS,ECR,23
GP,POINT A PITRE,ECR,23
DE,WUERZBURG,ECR,22
ZZ,BELGRADE,ATT,22
CA,CALGARY,THT,22
IT,PESCARA,AVS,22
NO,SANDEFJORD,RTZFP,22
NL,ROTTERDAM,RTZ,22
DE,NUREMBERG,AVSA,22
DE,DRESDEN,AVE,22
IT,TRENTO,ECR,22
NZ,WELLINGTON,ECR,22
DE,DUSSELDORF,SXT,22
IT,CATANIA,MATCHF,22
AR,BUENOS AIRES,ECR,22
CA,CALGARY,ALM,22
FR,BEZIERS,ECR,22
AU,HOBART,RTZ,22
DE,KOBLENZ,AVS,22
IT,PALERMO,AVSA,22
PL,KRAKOW,AVS,22
GR,IOANNINA,ECR,22
GB,PLYMOUTH,NCR,22
GB,LUTON,ECRWEB,22
FR,ANGOULEME,ECR,22
SK,KOSICE,ECR,22
FR,ANTIBES,ECFP,22
FR,GENEVA,RTZFP,21
SE,KIRUNA,AVS,21
GR,FIRA,ECR,21
SI,LJUBLJANA,SXT,21
IT,SORRENTO,ECSA,21
GB,CHESTER,NCR,21
GB,LONDON,BGT,21
DE,STUTTGART,AVE,21
FR,NIMES,ECR,21
ES,VIGO,EC1,21
GR,THESSALONIKI,RTZ,21
CH,INTERLAKEN,RTZ,21
AT,GRAZ,AVE,21
DE,WUERZBURG,AVS,21
DE,DUSSELDORF,NCRWEB,21
GB,BRISTOL,ECR,21
DE,HAMBURG,INTERLINE,21
DE,MANNHEIM,AVS,21
GB,NEWQUAY,ECFP,21
DE,BREMEN,NCR,21
FR,BEAUVAIS,NCR,21
FR,CANNES,NCR,21
IT,BOLZANO,AVS,21
IE,GALWAY,BGT,21
DE,FREILASSING,AVS,21
FR,NICE,BGT,21
NA,WINDHOEK,NCR2,21
PT,FARO,AVS,21
FR,LYON,DERECR,21
IT,TAORMINA,RTZ,21
IT,TURIN,RTZ,21
DE,KASSEL,AVS,21
DE,AACHEN,AVS,21
IB,LONDONDERRY,ECR,21
AT,SALZBURG,DERECR,21
FR,STRASBOURG,RTZFP,21
AU,CANBERRA,ECR,21
FI,TURKU,BGT,21
ES,MURCIA,AVFP,21
DE,RAMSTEIN,ECR,21
HR,DUBROVNIK,SXTCHF,21
FR,SARLAT LA CANEDA,ECR,21
FR,DEAUVILLE,ECR,21
NO,BODO,RTZFP,21
GB,INVERNESS,ECR,21
FR,CAHORS,ECFP,21
GB,CARDIFF,NCRWEB,21
IT,SALERNO,ECSA,21
FI,HELSINKI,RTZ,21
FR,LIBOURNE,ECFP,21
FR,CANNES,RTZFP,21
CH,GENEVA,DERECR,21
FR,TOURS,DERECR,21
DE,FREIBURG,ECFP,21
ES,MARBELLA,ECFP,20
US,FORT LAUDERDALE,THTSA,20
CH,VEVEY,ECR,20
ES,SAN SEBASTIAN,ECR,20
NO,TRONDHEIM,ECR,20
GB,LUTON,ECFP,20
FR,MORLAIX,ECFP,20
NL,THE HAGUE,ECR,20
IT,AGRIGENTO,ECR,20
AR,BARILOCHE,ECR,20
AN,PHILIPSBURG,THT,20
FR,VERNON,RTZFP,20
DE,DRESDEN,RTZ,20
GB,YORK,ECR,20
IT,BARI,AER,20
IT,BARI,AVSA,20
SE,GOTHENBURG,RTZ,20
GB,BATH,ECRWEB,20
AT,LINZ,ECR,20
DE,HANOVER,RTZ,20
GB,MANCHESTER,DERECR,20
DE,BITBURG,AVS,20
IT,DESENZANO,ECR,20
CA,TORONTO,THT,20
SE,NYKOPING,AVS,19
ES,CADIZ,AVFP,19
DE,HANOVER,ECFP,19
NO,STAVANGER,ECR,19
ES,CADIZ,ECFP,19
DE,TRIER,ECR,19
PU,SANTIAGO PGT,PGT,19
PT,CASCAIS,ECFP,19
IT,BERGAMO,RTZ,19
FR,QUIMPER,ECFP,19
CA,MONTREAL,BGT,19
BB,BARBADOS,STC,19
IT,BRESCIA,ECR,19
TR,ANKARA,ECR,19
FR,FONTAINEBLEAU,ECFP,19
BB,BARBADOS,DRV,19
DE,NUREMBERG,ECSA,19
ES,SEVILLA,AEMCHF,19
GR,CHANIA,ACR,19
FR,BIARRITZ,PGT,19
GB,GLASGOW,DERNCR,19
GB,NOTTINGHAM,NCR,19
IT,OLBIA,AVS,19
IT,LUCCA,RTZ,19
DE,WUERZBURG,ECFP,18
IT,TERNI,ECR,18
DE,PASSAU,ECR,18
GB,SWANSEA,NCR,18
DE,PASSAU,AVS,18
SE,KARLSTAD,AVS,18
FR,MACON,ECR,18
AT,VIENNA,SXT,18
AU,COOLANGATTA,ECR,18
TR,BODRUM,ECR,18
IT,GROSSETO,AVS,18
GB,PLYMOUTH,ECR,18
ZZ,TIVAT,ECR,18
FI,HELSINKI,AVS,18
GB,ASHFORD,AVS,18
FR,ROSCOFF,ECFP,18
FR,NICE,ECFLY,18
NO,KRISTIANSAND,RTZ,18
MA,CASABLANCA,ECR2,18
DE,MAINZ,ECFP,18
RO,TIMISOARA,THT,18
SI,KOPER,AVS,18
GB,NORWICH,NCRWEB,18
FR,PAU,RTZFP,18
CA,HALIFAX,BGT,18
ES,OVIEDO,ECR,18
GB,PEMBROKE,NCR,18
GR,SAMOS,ECR,17
SE,VAXJO,AVS,17
GB,YORK,NCRWEB,17
IT,PALERMO,DERECR,17
IT,PISA,DERRTZ,17
GB,STANSTED,RTZCA,17
AT,INNSBRUCK,BGT,17
FR,VALENCE,ECR,17
FI,TAMPERE,BGT,17
FR,METZ,ECFP,17
DE,RAMSTEIN,AVSA,17
GB,CAMBRIDGE,ECFP,17
GB,READING,NCR,17
FR,AIX EN PROVENCE,DERECR,17
CH,NEUCHATEL,ECR,17
DE,DORTMUND,AVS,17
NZ,DUNEDIN,RTZ,17
FR,BEAUVAIS,RTZFP,17
FR,NICE,ECE,17
NZ,TAUPO,RTZ,17
DO,PUERTO PLATA,ECR,17
SE,LULEA,ECR,17
ES,FIGUERAS,AVFP,17
FR,CHARTRES,ECR,17
GB,SOUTHAMPTON,ECR,17
GB,PORTSMOUTH,NCR,17
DE,BERCHTESGADEN,AVS,17
FR,BORDEAUX,DERNCR,17
FR,DINARD,ECR,17
ES,HUELVA,AVFP,17
DE,FREIBERG,AVS,17
FI,OULU,BGT,17
IT,PALERMO,MATCHF,17
DE,NUREMBERG,SXT,17
IE,KILLARNEY,BGT,17
CH,LUGANO,AVS,17
AT,SALZBURG,SPTCHF,17
IT,LAMEZIA TERME,RTZ,16
FR,LORIENT,ECR,16
RU,MOSCOW,EXECHF,16
FR,MONTE CARLO,RTZFP,16
GB,YORK,RTZ,16
NO,OSLO,BISCHF,16
DE,FRANKFURT,ECIESA,16
DE,REGENSBURG,ECFP,16
NO,SVOLVAER,RTZFP,16
DE,COLOGNE,NCRSA,16
IT,FORLI,ECR,16
ES,CADIZ,ECR,16
DE,LOERRACH,ECR,16
DE,ROSENHEIM,AVSA,16
FR,BLOIS,ECR,16
IT,TURIN,MATCHF,16
GB,PLYMOUTH,AVS,16
GB,ABERDEEN,ECR,16
AU,COOLANGATTA,RTZFP,16
HR,DUBROVNIK,ECR,16
GB,CARLISLE,NCR,16
RO,CLUJ NAPOCA,THT,16
GB,LEEDS,ECR,16
IT,LAMEZIA TERME,AER,16
IT,PISA,RTZSA,16
FR,REIMS,ECR,16
IT,BOLOGNA,AVSA,16
GB,BIRMINGHAM,ECR,16
IE,GALWAY,ECRIK,16
FR,NARBONNE,ECR,16
ES,LEON,AVFP,16
NL,HAARLEM,ECR,16
DE,AUGSBURG,AVS,16
FR,MULHOUSE,PGT,16
AU,CANBERRA,RTZ,16
FR,LE MANS,NCR,16
FR,PERIGUEUX,ECFP,16
DE,WIESBADEN,AVS,16
DE,BONN,ECR,16
GR,CHIOS,ACR,16
PT,FARO,NCR,16
GB,NORTHAMPTON,NCR,16
GR,CHANIA,RTZ,16
IT,VENICE,DERAV,16
FR,ARLES,RTZFP,16
GB,PLYMOUTH,ECRWEB,16
GB,CARMARTHEN,NCR,16
AT,LINZ,BGT,16
GR,KOS,ECR,16
NO,ALTA,RTZFP,16
PL,KRAKOW,NCR2,16
FR,NEVERS,ECFP,16
PL,WARSAW,AVS,15
FR,TOULON,ECR,15
AU,LAUNCESTON,RTZFP,15
DE,NUREMBERG,DERAV,15
GB,HIGH WYCOMBE,NCRWEB,15
PL,KATOWICE,BGT,15
DE,LINDAU,AVS,15
US,PORTLAND,COMMISSION,15
ES,LA CORUNA,ECFP,15
FR,RENNES,RTZFP,15
FR,BEAUNE,ECR,15
FR,AURAY,ECFP,15
NO,STRAVANGER,RTZFP,15
FR,CLERMONT FERRAND,ECFP,15
CA,VANCOUVER,ALM,15
ES,SEVILLA,DERAV,15
NZ,GREYMOUTH,BGFP,15
IT,PISA,DERECR,15
DE,PADERBORN,AVS,15
DE,KELSTERBACH,AVESA,15
NZ,BLENHEIM,RTZ,15
GB,OBAN,AVS,15
ES,BILBAO,RTZ,15
FR,STRASBOURG,PGT,15
NZ,GREYMOUTH,RTZ,15
IT,PADOVA,AVS,15
FR,LOURDES,ECR,15
FR,LISIEUX,ECFP,15
HR,DUBROVNIK,ECE,15
CR,LIBERIA,THT,15
FR,NANTES,RTZFP,15
DE,BONN,AVSA,15
IT,FLORENCE,ECFLY,15
DE,FRANKFURT,SXTEAST,15
GB,DUNDEE,NCRWEB,15
FR,EPERNAY,ECFP,15
DE,DUSSELDORF,NCE,15
GB,GLOUCESTER,NCR,15
CH,FRIBOURG,ECR,15
ES,LA CORUNA,EC1FP,15
DE,BADEN BADEN,ECR,15
GB,CARLISLE,ECFP,15
AU,COFFS HARBOUR,ECR,15
IT,NAPLES,DERAV,15
FI,HELSINKI,INTCHF,15
GR,SANTORINI,RTZ,15
DE,STUTTGART,NCRWEB,15
DE,FRIEDRICHSHAFEN,RTZ,14
IT,COSENZA,AVS,14
DE,LEIPZIG,ECR,14
NL,GRONINGEN,ECR,14
NL,MAASTRICHT,AVS,14
IT,VENICE,MATCHF,14
BR,SALVADOR,UNIDAS,14
DE,AUGSBURG,ECR,14
CH,THUN,ECR,14
IT,AOSTA,ECR,14
IE,CORK,BGT,14
GB,CARDIFF,ECRWEB,14
GB,DUNDEE,NCR,14
DE,BONN,AVS,14
DE,PADERBORN,ECR,14
GB,WATFORD,NCRWEB,14
IT,VENICE,DERRTZ,14
DE,STUTTGART,DERNCR,14
GB,EXETER,NCRWEB,14
ZA,EAST LONDON,AVS,14
IT,ROME,AERSA,14
FR,MONTPELLIER,DERECR,14
ZA,PORT ELIZABETH,BGT,14
IT,BRINDISI,AVS,14
NZ,BLENHEIM,BGFP,14
DE,DUSSELDORF,ECSAFP,14
DE,HAMBURG,ECIFP,14
GB,BRISTOL,AVS,14
GB,LEEDS,NCR,14
CY,PAPHOS,SXT,14
SE,OSTERSUND,AVS,14
DE,BERLIN,SXTEAST,14
DE,DUSSELDORF,ECIFP,14
IT,ROME,AVDF,14
SE,STOCKHOLM,DERAV,14
MX,MERIDA,ECR,14
FR,DRAGUIGNAN,ECFP,14
BG,SOFIA,ECR,14
IE,KNOCK,AVS,14
CH,GENEVA,AVE,14
DE,STUTTGART,INTERLINE,14
DE,BERLIN,DERAVE,14
SE,JONKOPING,ECR,14
NO,AALESUND,ECR,14
IT,ROME,EXCLUSIVE,14
FR,LYON,DERNCR,14
FR,AVIGNON,ECFLY,14
IT,CAGLIARI,AER,14
GB,FISHGUARD,ECFP,14
DE,HAHN,RTZ,14
IT,SALERNO,RTZ,14
IT,FOLIGNO,ECR,14
CH,BERN,RTZ,14
FR,CALAIS,DERECR,14
ES,MALAGA,EC1FP,14
GB,FISHGUARD,ECRWEB,13
DE,ROSENHEIM,RTZ,13
GB,NEWCASTLE,RTZCA,13
IB,DERRY,ECR,13
DE,KAISERSLAUTERN,ECR,13
GB,SLOUGH,NCRWEB,13
CS,PRAGUE,DERAV,13
IT,OLBIA,RTZ,13
GB,LONDON,DERRTZ,13
DE,BERLIN,AVESA,13
GB,BIRMINGHAM,RTZCA,13
GR,CHIOS,AEU,13
GB,SALISBURY,NCR,13
DO,SANTIAGO DO,ECR,13
GR,MYCONOS,RTZ,13
DE,BREMEN,RTZ,13
FR,DIJON,DERECR,13
IT,MESTRE,AVS,13
IT,CECINA,ECR,13
IT,CHIUSI,AVSA,13
ZA,PRETORIA,AVS,13
DE,BREMEN,AVSA,13
DE,HAMBURG,ECI,13
NZ,NAPIER,RTZ,13
IT,TAORMINA,AVS,13
NZ,HAMILTON,RTZ,13
BE,BRUSSELS,DERNCR,13
IT,TRIESTE,AVS,13
DE,BADEN BADEN,AVS,13
ES,BILBAO,EC1FP,13
IT,SAN REMO,AVS,13
MX,GUADALAJARA,ECR,13
IT,FLORENCE,AVDF,13
IT,PALERMO,RTZSA,13
FR,MOUTIERS,ECFP,13
GB,IPSWICH,NCR,13
NZ,HAMILTON,ECR,13
IT,PIOMBINO,AVS,13
NZ,PICTON,BGFP,13
NL,AMSTERDAM,SXT,13
DE,MUNICH,ECIESA,13
BG,SOFIA,RTZ,13
ES,MALAGA,AEMCHF,13
GB,CHESTER,ECRWEB,13
GB,INVERNESS,RTZCA,13
IT,SORRENTO,AVSA,13
MX,LA PAZ,ECR,13
GB,SALISBURY,NCRWEB,13
ES,MAHON,AVFP,13
FR,BREST,RTZFP,13
DE,DARMSTADT,AVS,13
GB,COLWYN BAY,ECRWEB,13
GB,FALMOUTH,ECFP,13
BE,BRUGGE,AVS,13
GR,CHIOS,ECR,13
GB,PERTH,NCR,13
IT,PESARO,AVS,13
GB,RICHMOND UPON THAMES,ECRWEB,13
NO,EVENES,RTZ,12
US,MIAMI,THTSA,12
FR,ORLEANS,ECR,12
NL,DEN HAAG,RTZ,12
NO,HAUGESUND,RTZFP,12
HR,POREC,NCR,12
DE,HAMBURG,ECE,12
DE,HANOVER,AVSA,12
IT,CEFALU,ECR,12
DE,DRESDEN,INTERLINE,12
IL,HAIFA,SHL,12
BE,ANTWERP,AVS,12
HR,RIJEKA,NCR,12
IT,REGGIO CALABRIA,AER,12
FR,BASTIA,ECR,12
SE,VISBY,AVS,12
IT,LAMEZIA TERME,ECSA,12
DK,COPENHAGEN,DERAV,12
FR,PERIGUEUX,ECR,12
FR,PERPIGNAN,RTZFP,12
NZ,INVERCARGILL,RTZ,12
GB,SALISBURY,ECFP,12
IT,PALERMO,DERAV,12
AU,CANBERRA,RTZFP,12
NL,EINDHOVEN,RTZ,12
DE,FRANKFURT,BGT,12
AT,WIENER NEUSTADT,ECR,12
DE,HEIDELBERG,AVSA,12
GB,TEESSIDE,ECFP,12
DE,HAHN,NCR,12
GB,LUTON,RTZCA,12
DE,LEIPZIG,AVSA,12
FR,LORIENT,RTZFP,12
DE,LEIPZIG,ECFP,12
DK,BILLUND,AVS,12
AT,KLAGENFURT,AVS,12
GB,NEWQUAY,ECR,12
MX,CABO SAN LUCAS,THT,12
FR,MARNE LA VALLEE,RTZFP,12
IT,ANCONA,ECSA,12
DE,FRIEDRICHSHAFEN,AVS,12
GB,PENZANCE,ECR,12
IT,CASERTA,ECR,12
DE,DRESDEN,ECFP,12
FR,PARIS,ELT,12
FR,PARIS,DERRTZ,12
FR,LE HAVRE,ECR,12
DE,MAINZ,AVSA,12
GR,NAXOS,AEU,12
PT,AVEIRO,EC1FP,12
IE,SLIGO,NCR,12
IT,TERNI,AVS,12
NO,OSLO,AVS,12
AU,LAUNCESTON,RTZ,12
IT,ROME,AERDF,12
ZA,JOHANNESBURG,AVCHF,12
GB,OXFORD,ECR,12
GB,EXETER,ECRWEB,12
IT,VIAREGGIO,AVS,12
PT,FARO,AVFP,12
ES,PAMPLONA,ECFP,12
FR,BAYONNE,RTZFP,12
FR,PARIS,ECRLX,12
GB,PRESTWICK,RTZCA,12
FR,ST. GERMAIN EN LAYE,ECFP,12
ES,BARCELONA,AV1,12
IT,NAPLES,DERECR,12
ES,SITGES,AVFP,12
DE,HANOVER,INTERLINE,12
GR,PAROS,RTZ,12
PL,WARSAW,NCR2,12
GB,GUILDFORD,NCRWEB,12
IT,FLORENCE,AERSA,11
FR,MARSEILLE,DERNCR,11
CH,LUCERNE,RTZ,11
TN,TUNIS,ECR,11
AU,TOWNSVILLE,ECR,11
GB,DONCASTER,NCRWEB,11
DE,KARLSRUHE,ECR,11
GB,STANSTED,AVS,11
IT,VERONA,ECSA,11
PL,GDANSK,BGT,11
DE,HAMBURG,ECSAFP,11
IT,GENOA,DERECR,11
IT,MILAN,MATCHF,11
FR,TOURS,LESCHF,11
DE,COLOGNE,AVE,11
FR,CAGNES SUR MER,ECFP,11
GB,GUILDFORD,NCR,11
DE,NUREMBERG,AVE,11
FR,ANNEMASSE,ECFP,11
CW,CURACAO,BGT,11
ES,TORREMOLINOS,ECFP,11
PT,CASCAIS,ECR,11
DE,ERDING,AVSA,11
IT,ANCONA,AER,11
FR,SETE,ECFP,11
NZ,ROTORUA,BGFP,11
NZ,WELLINGTON,BGFP,11
DE,HANAU,AVS,11
IT,FOGGIA,AVS,11
DE,AUGSBURG,ECFP,11
DE,SPEYER,AVS,11
GR,LESVOS,ECR,11
IT,MANTOVA,ECR,11
FR,ANGERS,RTZFP,11
FI,KUOPIO,ECR,11
FR,GRENOBLE,ECR,11
FR,AGEN,ECR,11
GB,ENFIELD,NCR,11
FR,PERPIGNAN,DERECR,11
NL,UTRECHT,ECR,11
GB,EDINBURGH,ALMGS,11
AT,ZELL AM SEE,ECR,11
GB,SLOUGH,NCR,11
IT,MATERA,ECR,11
IT,MODENA,ECR,11
DE,HANOVER,SXT,11
GR,IOANNINA,RTZ,11
HR,ZADAR,NCR,11
ES,ALMERIA,EC1FP,11
IT,CAGLIARI,RTZ,11
GB,NEWCASTLE,RTZ,11
FR,BEAULIEU SUR MER,RTZFP,11
DE,SCHWEINFURT,ECR,11
DE,FREILASSING,ECR,11
DE,FREILASSING,AVSA,11
BR,BELO HORIZONTE,UNIDAS,11
SE,MALMO,RTZ,11
PT,FARO,EC1,11
ZA,STRAND,AVS,11
IT,LECCO,ECR,11
GB,BOURNEMOUTH,NCR,11
MK,SKOPJE,ECR,11
IT,BOLOGNA,MATCHF,10
IE,GALWAY,NCR,10
DE,COLOGNE,DERAV,10
BE,GENT,ECR,10
IT,UDINE,ECR,10
DE,BERLIN,DERNCR,10
TR,ADANA,ECR,10
GB,NORWICH,ECFP,10
HU,BUDAPEST,DERNCR,10
DE,BONN,ECFP,10
IT,TURIN,AVSA,10
FR,CLERMONT,ECFP,10
IT,FLORENCE,AVE,10
IT,AREZZO,ECSA,10
FR,GRASSE,ECFP,10
FR,AGEN,ECFP,10
GB,ABERDEEN,RTZCA,10
IT,ASTI,AVS,10
FR,AMBOISE,ECR,10
IT,LAMEZIA TERME,AVSA,10
GB,SHEFFIELD,NCR,10
UY,PUNTA DEL ESTE,ECR,10
GB,CARLISLE,ECRWEB,10
NL,EINDHOVEN,NCRWEB,10
PL,WROCLAW,BGT,10
IT,PORTO CERVO,ECR,10
DE,KASSEL,AVSA,10
GB,MANCHESTER,DERNCR,10
IT,CAPRI,ADCHF,10
FR,ST. ETIENNE,ECFP,10
CH,LUCERNE,AVS,10
CH,WINTERTHUR,RTZ,10
FR,AMBOISE,ECFP,10
GB,OXFORD,RTZCA,10
DE,ULM,AVS,10
DE,GIESSEN,AVS,10
FR,PARIS,FSTCHF,10
CH,LAUSANNE,AVS,10
GB,OXFORD,AVS,10
IT,RIMINI,AVS,10
IB,DERRY,AVS,10
DE,BERLIN,ECIFP,10
GB,NEWCASTLE,ECR,10
IT,RAGUSA,ECR,10
FR,CAEN,DERRTZ,10
GB,BOLTON,NCR,10
IT,TRAPANI,ECR,10
CH,ST. MORITZ,RTZ,10
NL,EINDHOVEN,NCR,10
BE,ANTWERP,ECFP,10
ES,MADRID,ECFLY,10
GB,LONDON,ALMGS,10
GB,POOLE,NCR,10
CA,TORONTO,BGT,10
DE,GARMISCH,AVSA,10
FR,BERGERAC,ECR,10
IT,GENOA,AVSA,10
DE,AACHEN,ECR,10
DE,HAMBURG,AVE,10
ZA,GEORGE,BGT,10
FR,LIBOURNE,ECR,10
GB,GUILDFORD,RTZ,10
IT,ALGHERO,AVS,10
GB,PLYMOUTH,ECFP,10
SG,SINGAPORE,BURGUNDY,10
DE,WUERZBURG,AVSA,10
FR,CLERMONT FERRAND,RTZFP,10
GB,LINCOLN,NCR,10
GR,RETHYMNON,ECR,10
DE,HAMBURG,DERNCR,10
DE,GOETTINGEN,AVS,10
GR,MYKONOS,AEU,10
IT,CHIUSI,ECSA,10
IT,ROME,MATCHF,10
ES,SEGOVIA,AVFP,10
GB,CROYDON,NCRWEB,10
ES,ZARAGOZA,AVFP,10
DE,HAHN,ECFP,10
GB,LEICESTER,NCRWEB,10
IT,CAMPOBASSO,ECR,10
IT,PAVIA,ECR,9
DE,DORTMUND,ECFP,9
NL,HAARLEM,AVS,9
GB,CRAWLEY,NCR,9
FR,SENS,ECR,9
DE,PASSAU,ECFP,9
BE,BRUSSELS,ECFLY,9
FR,LILLE,RTZFP,9
BR,FORTALEZA,UNIDAS,9
DE,BAYREUTH,AVS,9
DE,COLOGNE,NCRWEB,9
DE,LANDSHUT,AVS,9
GB,YEOVIL,NCR,9
NL,ALKMAAR,AVS,9
GB,SALISBURY,ECRWEB,9
DE,MARBURG,AVS,9
FR,GIEN,ECR,9
GB,PORTSMOUTH,ECFP,9
FR,BREST,ECR,9
MA,MARRAKECH,ECR2,9
IT,MESSINA,AVS,9
ES,BILBAO,AEMCHF,9
FR,ARCACHON,ECFP,9
ES,ALGECIRAS,ECFP,9
IT,BERGAMO,AVS,9
NZ,PICTON,ECR,9
DK,ODENSE,ECR,9
DE,POTSDAM,AVS,9
GR,KALAMATA,ECR,9
AT,LINZ,AVS,9
NL,HOOFDDORP,NCR,9
IT,VICENZA,AVS,9
ZA,RANDBURG,NCR2,9
FR,LYON,SXT,9
HR,ZAGREB,ECE,9
IT,GAETA,ECR,9
GB,STIRLING,NCR,9
GB,DERBY,NCR,9
IT,NAPLES,AERDF,9
DE,DUSSELDORF,DERAV,9
SE,NYKOPING,ECR,9
FR,VALENCE,RTZFP,9
HR,RIJEKA,ECR2,9
DE,LUEBECK,AVS,9
DE,WIESBADEN,AVSA,9
ES,CORDOBA,AVWEB,9
SE,UPPSALA,AVS,9
IT,LECCE,AVS,9
SE,OSTERSUND,RTZ,9
FR,LIMOGES,NCR,9
GB,COVENTRY,NCRWEB,9
IT,BARI,MATCHF,9
HR,PULA,ECR2,9
FR,DIGNE LES BAINS,ECFP,9
FR,ROUEN,DERECR,9
IT,SIENA,DERAV,9
NO,SVOLVAER,RTZ,9
IT,ROME,ECDF,9
GR,NAXOS,ECR,9
ES,OVIEDO,ECFP,9
GB,PENZANCE,ECRWEB,9
CH,LUGANO,ECFP,9
DE,KOBLENZ,ECFP,9
DE,BONN,ECSA,9
DE,STUTTGART,NCE,9
GB,PEMBROKE,NCRWEB,9
NO,STAVANGER,RTZ,9
DE,DRESDEN,AVSA,9
IT,PALERMO,DERRTZ,9
IT,SAN REMO,RTZ,9
ZZ,PODGORICA,ECR,9
DE,TRIER,ECFP,9
TR,MARMARIS,ECR,9
IT,PERUGIA,ECSA,9
HR,ZAGREB,ECE2,9
DE,KELSTERBACH,ECFP,9
DE,DUSSELDORF,DERNCR,9
DE,STUTTGART,ECIFP,9
GB,PETERBOROUGH,NCR,9
HR,SPLIT,ECE2,9
FR,LAVAL,ECFP,9
GB,NORWICH,ECRWEB,9
AE,DUBAI,AVS,9
IT,COMO,DERECR,9
IT,VENICE,AVDF,9
GB,COVENTRY,ECRWEB,9
GB,SWINDON,NCR,9
DE,FUESSEN,ECSA,9
RU,ST PETERSBURG,EXECHF,9
ZA,PRETORIA,NCR2,9
FR,PAU,ECR,9
ES,TARRAGONA,AVFP,8
GB,CRAWLEY,NCRWEB,8
GB,BEDFORD,NCRWEB,8
GB,TRURO,ECFP,8
ES,BURGOS,AVFP,8
AU,ALICE SPRINGS,RTZFP,8
DE,FRIEDBERG,AVS,8
FR,ROUEN,NCR,8
DE,DUSSELDORF,DERECR,8
DE,OFFENBACH,ECR,8
DE,HAMBURG,NCRWEB,8
ES,SAN SEBASTIAN,AVWEB,8
GB,NEWQUAY,NCR,8
CH,GENEVA,SXT,8
ES,TARRAGONA,ECR,8
DE,SAARBRUECKEN,ECR,8
FR,MONTLUCON,ECR,8
IT,PALERMO,AVDF,8
DE,KONSTANZ,ECR,8
DE,HAMBURG,NCE,8
FR,TARBES,ECFP,8
GB,RICHMOND UPON THAMES,ECFP,8
GB,DERBY,NCRWEB,8
FI,ROVANIEMI,ECR,8
NL,LEIDEN,RTZ,8
GB,STANSTED,RTZ,8
FI,ROVANIEMI,BGT,8
DE,MUNICH,MCRNT,8
AT,INNSBRUCK,DERECR,8
GB,FISHGUARD,ECR,8
BR,RECIFE,UNIDAS,8
GB,KINGSTON,NCRWEB,8
DE,BRAUNSCHWEIG,AVS,8
GR,KAVALA,ECR,8
FR,MONTE CARLO,SEGOND,8
DE,RAMSTEIN,AVE,8
GB,IPSWICH,ECFP,8
GB,FULHAM,NCR,8
DE,BERLIN,DERAV,8
FR,NEVERS,ECR,8
FR,ARRAS,ECR,8
ES,REUS,AVFP,8
ES,GRANADA,RTZ,8
DE,KAISERSLAUTERN,ECFP,8
GB,INVERNESS,BGT,8
DE,KELSTERBACH,AVS,8
GB,SWINDON,NCRWEB,8
GB,PLYMOUTH,NCRWEB,8
FR,QUIMPER,ECR,8
DE,NUREMBERG,NCRSA,8
GB,GLOUCESTER,NCRWEB,8
AU,ROCKHAMPTON,ECR,8
ES,GERONA,AVWEB,8
GB,CAMBRIDGE,RTZ,8
GB,STIRLING,ECRWEB,8
GB,GUERNSEY,ECR5,8
DE,MUNICH,AVSFLY,8
GB,OXFORD,DERNCR,8
FR,BREST,PGT,8
DE,DARMSTADT,ECIFP,8
FR,JOIGNY,ECR,8
NO,SOGNDAL,ECR,8
FR,MULHOUSE,ECR,8
FR,SAUMUR,ECFP,8
AU,MAROOCHYDORE,ECR,8
CH,CRANS MONTANA,RTZ,8
FI,TAMPERE,ECR,8
DK,COPENHAGEN,DERECR,8
GB,CAMBRIDGE,ECR,8
GB,PORTSMOUTH,RTZ,8
FR,LILLE,NCR,8
IT,CATANIA,DERECR,8
IE,SLIGO,BGT,8
GB,STEVENAGE,NCR,8
IT,MESSINA,RTZ,8
DK,AARHUS,AVS,8
IT,BOLOGNA,ECSA,8
MT,HAMRUN,NCR,8
GB,KINGSTON,NCR,8
GB,LUTON,AVS,8
IT,MONTECATINI TERME,RTZ,8
IT,NAPLES,RTZSA,8
NL,AMSTERDAM,DERRTZ,8
CH,SION,AVS,8
NL,AMSTERDAM,DERAV,8
ZA,STELLENBOSCH,AVS,8
GB,BASILDON,NCR,8
GB,NEWCASTLE,AVS,8
DE,WUPPERTAL,ECSA,8
ZA,CAPETOWN,AVCHF,8
GB,YORK,RTZCA,8
GB,EAST MIDLANDS,NCR,8
ES,ORENSE,EC1,8
NL,LEEUWARDEN,ECR,8
DE,WUERZBURG,RTZ,8
GB,PRESTWICK,RTZ,8
ES,SALAMANCA,ECFP,8
DE,FREILASSING,ECFP,8
DE,ROTH,ECR,8
SK,BRATISLAVA,BGT,8
GB,STIRLING,NCRWEB,8
ES,CORDOBA,ECR,8
IT,SIENA,DERECR,8
IT,FABRIANO,ECR,8
DE,DARMSTADT,RTZ,8
GB,CHESTER,ECFP,8
CH,DAVOS PLATZ,ECR,8
AU,ALBURY,ECR,8
DE,COLOGNE,DERECR,8
DE,GOETTINGEN,ECR,8
NZ,NAPIER,ECR,8
FR,ANTIBES,ECR,8
DE,BADEN BADEN,ECFP,8
FR,VILLEFRANCHE SUR SAO,ECR,8
FR,LA ROCHELLE,ECR,8
DE,WIESBADEN,ECR,8
SE,LUND,AVS,8
GB,WELLINGBOROUGH,NCR,8
DE,LUEBECK,AVSA,7
GB,INVERNESS,DERECR,7
ES,CORDOBA,DERAV,7
NO,KRISTIANSAND,ECR,7
DE,HEILBRONN,ECFP,7
IT,NAPLES,ECDF,7
IT,BRINDISI,RTZ,7
PT,ESTORIL,AVS,7
GB,MANCHESTER,ALMGS,7
MX,SAN JOSE DEL CABO,THT,7
FR,AJACCIO,RTZFP,7
IT,GIARDINI DI NAXOS,ECR,7
ES,SEVILLA,EC1,7
DE,STUTTGART,SXTEAST,7
ES,MADRID,EURO CAM,7
FR,CHAMONIX,ECFP,7
DE,HEILBRONN,ECR,7
SK,BRATISLAVA,ECR,7
DE,ULM,ECR,7
ES,BARCELONA,EC1,7
GB,MANCHESTER,SXT,7
DE,WIESBADEN,RTZ,7
DE,SINDELFINGEN,ECR,7
SE,HELSINGBORG,ECR,7
MX,IXTAPA,ECR,7
FR,AMIENS,ECR,7
IT,RAVENNA,ECR,7
FR,STRASBOURG,AICS,7
DE,KASSEL,ECIFP,7
DE,FREILASSING,ECSAFP,7
FR,BORDEAUX,BODCHF,7
DE,NEUSS,AVS,7
DE,WORMS,ECFP,7
FR,ST. NAZAIRE,ECFP,7
NO,BERGEN,AVS,7
DE,SAARBRUECKEN,ECFP,7
IB,BELFAST,DERNCR,7
GR,AGIOS NIKOLAOS,ECR,7
FR,AVALLON,ECFP,7
FI,KOKKOLA,ECR,7
SI,PORTOROZ,NCR,7
IT,OLBIA,AER,7
NO,OSLO,DERRTZ,7
FR,STRASBOURG,DERECR,7
ES,BILBAO,EC1,7
LC,ST. LUCIA,DRV,7
FR,MENTON,ECR,7
BE,ANTWERP,SXT,7
IT,VERONA,MATCHF,7
SE,KALMAR,RTZ,7
IT,FLORENCE,AERDF,7
DE,STUTTGART,MCRNT,7
DE,OLDENBURG,AVS,7
DE,FRANKFURT,MCRNT,7
IT,GENOA,ECSA,7
DE,DARMSTADT,AVSA,7
PT,LISBON,AV1,7
FR,FONTAINEBLEAU,ECR,7
GB,CARDIFF,AVS,7
FR,NICE,DERRTZ,7
IT,FLORENCE,ECDF,7
FR,BOURG ST MAURICE,ECFP,7
HR,SPLIT,ECR,7
DE,GOETTINGEN,ECFP,7
DE,TRIER,AVS,7
DE,BAMBERG,AVS,7
NO,EVENES,RTZFP,7
ES,MADRID,DERRTZ,7
MX,CANCUN,THT,7
FR,CLERMONT FERRAND,ECR,7
NZ,TAURANGA,BGFP,7
MX,BAHIAS DE HUATULCO,ECR,7
DE,OLDENBURG,ECR,7
GB,SWANSEA,ECFP,7
DE,ASCHAFFENBURG,ECR,7
GR,KALAMATA,ACR,7
DE,HANOVER,DERAV,7
NO,KIRKENES,ECR,7
DE,DRESDEN,SXT,7
GR,HERAKLION,DERECR,7
FR,MELUN,ECFP,7
GB,MANCHESTER,ECFLYFP,7
DE,HANOVER,NCRSA,7
ES,ALMERIA,AVFP,7
BE,CHARLEROI,RTZ,7
ES,FORMENTERA,AVFP,7
GB,CAMBRIDGE,ECRWEB,7
FR,FIGARI,ECR,7
DE,MUNICH,DERAVE,7
DE,GARMISCH,ECR,7
GB,EAST MIDLANDS,ECFP,7
DE,HOLZMINDEN,ECSAFP,7
ZA,EAST LONDON,NCR2,7
FR,NIMES,RTZFP,7
US,PORTLAND,AEUSCHF,7
GB,TAUNTON,ECFP,7
GB,BRIGHTON,ECFP,7
FR,BANDOL,ECFP,7
IT,RIMINI,RTZ,7
ES,VALENCIA,DERECR,7
ES,VIGO,ECR,7
FR,ANTIBES,RTZFP,7
DE,FUESSEN,ECFP,7
CH,ZURICH,SXT,7
IT,L AQUILA,ECR,7
FR,CHERBOURG,ECR,7
DE,KEMPTEN,AVS,7
DE,WETZLAR,AVS,7
IT,PORDENONE,ECR,7
GB,HARWICH,BGT,7
FR,CHAMBERY,ECR,7
GB,SALISBURY,ECR,7
DE,KOBLENZ,AVSA,7
GB,LANCASTER,NCRWEB,7
SK,BRATISLAVA,AVS,7
ES,ALCALA,AVFP,7
IT,FERRARA,ECR,7
DE,KARLSRUHE,ECIFP,7
AW,ORANJESTAD,THT,6
IT,CREMONA,ECR,6
DE,HAMBURG,ECEFP,6
GB,MILTON KEYNES,NCRWEB,6
NZ,ROTORUA,ECR,6
DE,FRANKFURT,AVSFLY,6
AR,TRELEW,ECR,6
GB,HUMBERSIDE,ECRWEB,6
CA,HALIFAX,THT,6
HR,DUBROVNIK,DERECR,6
CH,BERN,AVS,6
GB,BURY ST EDMUNDS,NCRWEB,6
GB,SHEFFIELD,ECRWEB,6
SE,UMEA,AVS,6
DE,BERLIN,ECSAFP,6
DE,NEUSTADT,AVS,6
IT,NAPLES,DERRTZ,6
GB,TRURO,ECR,6
PT,AVEIRO,ECFP,6
DE,WEIMAR,ECR,6
GB,LEEDS,ALMGS,6
PT,CHAVES,EC1FP,6
DE,HAHN,AVE,6
AU,BRISBANE,HUGHES,6
IT,CROTONE,ECR,6
DE,GARMISCH,ECSA,6
FR,DIJON,PGT,6
FR,DIJON,NCR,6
DE,KASSEL,SXT,6
IT,CASSINO,ECR,6
DE,LUENEN,ECIFP,6
DE,ROSENHEIM,AVS,6
FR,PERTUIS,ECFP,6
BR,SAO PAULO,ECR,6
BG,VARNA,GLOBAL,6
GR,LOUTRAKI,ECR,6
IT,ROVIGO,ECR,6
IT,CEFALU,AER,6
GB,NEWQUAY,ECRWEB,6
CH,CHUR,AVS,6
GB,EDINBURGH,DERRTZ,6
DE,ERDING,ECFP,6
CA,ST. JOHNS NF,THT,6
FR,MARSEILLE,ECFLY,6
GB,NEWBURY,NCRWEB,6
DE,BERLIN,ECI,6
GR,PORTO HELI,RTZ,6
NL,GRONINGEN,AVS,6
IT,ANCONA,RTZ,6
GB,LEEDS,NCRWEB,6
DE,EMDEN,RTZ,6
FR,LANNION,ECFP,6
GB,BRACKNELL,NCRWEB,6
IT,VERONA,AVSA,6
IT,LA SPEZIA,ECSA,6
DE,GIESSEN,ECR,6
GB,CHELMSFORD,NCRWEB,6
ES,VALLADOLID,AVFP,6
DE,DUSSELDORF,AVE,6
DK,ODENSE,AVS,6
DE,MUENSTER,SXT,6
GB,EAST MIDLANDS,ECR,6
GB,PERTH,NCRWEB,6
DE,COLOGNE,ECI,6
BR,FLORIANOPOLIS,ECR,6
NL,AMERSFOORT,RTZ,6
PT,COIMBRA,EC1FP,6
IE,KNOCK,ECRIK,6
IT,NAPLES,ECE,6
FR,ST. QUENTIN,ECFP,6
IT,SORRENTO,DERECR,6
DE,FRANKFURT,DERAVE,6
SE,KALMAR,AVS,6
FR,MOULINS,ECR,6
SE,VASTERAS,AVS,6
FR,CHARTRES,RTZFP,6
FR,PORTO VECCHIO,ECFP,6
IE,CORK,ECRCHF,6
FR,ROANNE,ECFP,6
FR,CHATELLERAULT,ECFP,6
ES,SANTANDER,EC1,6
AU,AVALON,RTZFP,6
DE,FRIEDRICHSHAFEN,ECR,6
FR,ALENCON,ECFP,6
NL,UTRECHT,RTZ,6
ES,LEON,ECR,6
DE,LEIPZIG,RTZE,6
DE,DUSSELDORF,ECSA,6
DE,RAMSTEIN,ECI,6
NL,EINDHOVEN,AVS,6
DE,FUERTH,ECR,6
DE,NUREMBERG,DERNCR,6
GB,BIRMINGHAM,NCRSQ,6
DE,STUTTGART,ECSA,6
FR,RENNES,DERNCR,6
AT,VIENNA,DERAVE,6
DE,RUESSELSHEIM,AVESA,6
ES,GRANADA,AVWEB,6
FR,TOULOUSE,DERECR,6
NO,BODOE,RTZFP,6
GB,NEW MALDEN,ECRWEB,6
GB,LANCASTER,AVS,6
DE,MAINZ,RTZ,6
FR,NANCY,RTZFP,6
BE,CHARLEROI,AVS,6
DE,HOF,ECFP,6
DE,ESSEN,AVS,6
GB,WATFORD,NCR,6
ES,FUERTEVENTURA,AVFP,6
DE,STARNBERG,ECR,6
DE,MANNHEIM,AVSA,6
FR,AIX EN PROVENCE,DERRTZ,6
DE,TUEBINGEN,ECR,6
GB,HULL,ECFP,6
DE,KEMPTEN,ECR,6
GB,DOVER,NCR,6
PL,SZCZECIN,AVS,6
FR,STRASBOURG,NCR,6
FR,GRANVILLE,ECFP,6
FR,AURAY,ECR,6
IT,CITTA DI CASTELLO,AVS,6
FR,POITIERS,ECR,6
GB,PRESTWICK,AVS,6
CH,BASEL,NCR,6
DE,HOMBURG,AVS,6
DE,SINGEN,AVS,6
IE,KERRY,BGT,6
GB,EDINBURGH,BGT,6
FR,MULHOUSE,RTZFP,6
IT,CASERTA,AVS,6
AU,COOLANGATTA,RTZ,6
IT,PALERMO,AERDF,6
DE,STUTTGART,ECI,6
DE,DUSSELDORF,MCRNT,6
IT,VENICE,ECFLY,6
DE,REGENSBURG,RTZ,6
ES,JEREZ,AVWEB,6
NO,TRONDHEIM,RTZ,6
BR,FLORIANOPOLIS,THT,6
GB,SOUTHAMPTON,DERNCR,6
FR,CAHORS,ECR,6
AU,DEVONPORT,RTZFP,6
NO,AALESUND,RTZFP,6
GR,ZAKYNTHOS,ECR,6
GB,NEWQUAY,NCRWEB,6
IT,FORMELLO,RTZ,6
DE,OLDENBURG,SXT,6
AU,DARLING HARBOUR,ECR,6
ZA,RICHARDS BAY,NCR2,6
GB,PRESTWICK,ECR,6
GB,STOKE ON TRENT,NCR,6
FR,RENNES,DERECR,6
IT,LAMEZIA TERME,AERSA,6
PT,PICO,ILHA,6
DE,BADEN BADEN,RTZ,6
DE,HAHN,AVSA,6
GB,CAMBRIDGE,AVS,6
DE,BERLIN,ECSA,6
IE,ROSSLARE,ECRIK,6
GB,HUMBERSIDE,ECR,6
DE,DARMSTADT,ECR,6
MX,PLAYA DEL CARMEN,ECR,6
IT,BIELLA,ECR,6
DE,DRESDEN,AVESA,6
GB,BURY ST EDMUNDS,NCR,6
DE,STUTTGART,DERAV,6
DE,BREMEN,DERAV,6
DE,NUREMBERG,NCRWEB,6
ES,LA CORUNA,AV1,6
FR,COLMAR,ECR,6
GB,STIRLING,ECR,6
GR,KEFALONIA,ACR,6
GB,SOUTHAMPTON,RTZ,6
DE,ROSTOCK,ECFP,6
NZ,DUNEDIN,BGFP,6
BR,PORTO ALEGRE,UNIDAS,6
DE,AACHEN,RTZ,6
FR,GIEN,ECFP,6
DE,BAD HOMBURG,AVS,5
DE,KARLSRUHE,ECSA,5
GB,MILTON KEYNES,ECFP,5
FR,METZ,RTZFP,5
DE,PFORZHEIM,AVS,5
BG,SOFIA,GLOBAL,5
DE,DUISBURG,ECFP,5
DE,KONSTANZ,ECFP,5
CH,BERN,DERECR,5
IT,CAGLIARI,AVSA,5
DE,FRANKFURT,NCRFLY,5
DE,HOF,ECR,5
FR,NIORT,ECFP,5
DE,HANOVER,AVE,5
GB,STRATFORD ON AVON,RTZ,5
IT,BARI,ECSA,5
DE,OSNABRUECK,ECR,5
DE,FLENSBURG,AVS,5
DE,ESSLINGEN,ECR,5
IT,SORRENTO,AERSA,5
GB,COVENTRY,NCR,5
IT,BRA,AVS,5
DE,LUEBECK,ECR,5
DE,BREMEN,ECIFP,5
FR,VENDOME,ECR,5
DE,OFFENBURG,ECR,5
NZ,DUNEDIN,ECR,5
DE,ROSENHEIM,ECR,5
GB,BLACKPOOL,ECRWEB,5
NO,HAUGESUND,RTZ,5
GB,HARLOW,NCRWEB,5
PL,WROCLAW,AVS,5
ES,LA CORUNA,EC1,5
GB,BOURNEMOUTH,NCRWEB,5
GB,PORTSMOUTH,ECR,5
GB,PORTSMOUTH,NCRWEB,5
IT,GENOA,DERAV,5
ES,ALICANTE,EC1FP,5
GB,READING,NCRWEB,5
GB,HUMBERSIDE,ECFP,5
SE,VAXJO,ECR,5
NL,UTRECHT,AVS,5
DE,HANOVER,DERNCR,5
ZA,SANDTON,AVS,5
DE,HAMBURG,ECSA,5
IT,TORINO,AVSA,5
IT,AVELLINO,AVS,5
DE,INGOLSTADT,AVS,5
FR,LE MANS,ECR,5
IT,TREVISO,AER,5
DE,NUREMBERG,ECIFP,5
IT,SIENA,ECSA,5
CA,MONTREAL,THT,5
NZ,BLENHEIM,ECR,5
DE,KAISERSLAUTERN,AVE,5
NL,ARNHEM,ECR,5
FR,VIERZON,ECFP,5
ES,VALENCIA,RTZ,5
ES,SANTANDER,RTZ,5
IT,TREVISO,ECE,5
DE,POTSDAM,AVE,5
DE,STUTTGART,NCRFLY,5
DE,KARLSRUHE,AVSA,5
IT,SAN DONA DI PIAVE,ECR,5
MA,TANGIER,ECR2,5
DK,SONDERBORG,ECR,5
CH,ZUG,AVE,5
GB,FALMOUTH,ECRWEB,5
MQ,FORT DE FRANCE,AVS,5
DE,TRAUNSTEIN,ECR,5
NO,SANDEFJORD,ECR,5
GB,DOVER,AVS,5
AU,DEVONPORT,ECR,5
SE,OSKARSHAMN,AVS,5
NL,ZWOLLE,ECR,5
DE,ESSEN,ECSA,5
DE,DUSSELDORF,AVESA,5
DE,MARBURG,ECR,5
IT,MILAN,AERDF,5
ES,TOLEDO,AV1,5
DE,ERLANGEN,AVS,5
GR,KEFALONIA,AEU,5
ES,OVIEDO,AV1,5
GR,RHODES,RTZ,5
FR,AVALLON,ECR,5
FR,MANOSQUE,ECFP,5
MY,KUALA LUMPUR,AVS,5
IT,VENICE,RTZSA,5
BE,LIEGE,ECR,5
IT,CATANIA,AERDF,5
IT,LUCCA,ECSA,5
FR,TROYES,ECFP,5
IT,PALERMO,AERSA,5
NL,ARNHEM,RTZ,5
DE,DORTMUND,ECR,5
IT,BERGAMO,AER,5
DE,BAD KREUZNACH,AVS,5
DE,KASSEL,ECFP,5
DE,FREISING,AVSA,5
FR,GRASSE,ECR,5
FI,VAASA,BGT,5
FR,JUAN LES PINS,RTZFP,5
JM,MONTEGO BAY,ECR,5
FR,ST. BRIEUC,ECFP,5
FR,BOURGES,ECFP,5
DE,HAMBURG,MCRNT,5
DK,ESBJERG,AVS,5
HU,BUDAPEST,SXT,5
DE,FRANKFURT,DERSXT,5
GB,DARLINGTON,NCR,5
NZ,AUCKLAND,BRITZ,5
GB,LINCOLN,ECRWEB,5
PT,CALDAS DA RAINHA,EC1FP,5
IE,CORK,DERECR,5
SE,VISBY,RTZ,5
GB,NOTTINGHAM,NCRWEB,5
ES,SANTANDER,EC1FP,5
GB,ABERDEEN,DERECR,5
DE,ESSEN,AVSA,5
GB,CARMARTHEN,NCRWEB,5
DE,PASSAU,ECE,5
ES,ORENSE,AV1,5
FR,ST. TROPEZ,RTZFP,5
IT,CHIUSI,DERECR,5
DE,LUEBECK,ECFP,5
FR,PAU,PGT,5
PT,LAGES,AVS,5
FR,AURILLAC,ECFP,5
FR,GENEVA,DERECR,5
AU,AIRLIE BEACH,ECR,5
DK,ESBJERG,RTZ,5
IT,VARESE,ECR,5
IT,ALGHERO,AER,5
DE,COLOGNE,ECSAFP,5
DE,BERLIN,MCRNT,5
PT,FARO,DERECR,5
GB,CARLISLE,RTZ,5
FR,LILLE,PGT,5
DE,KIEL,ECFP,5
FR,VANNES,RTZFP,5
GB,LEICESTER,NCR,5
GB,BOLTON,NCRWEB,5
GB,IPSWICH,ECR,5
BG,BOURGAS,GLOBAL,5
PT,ALBUFEIRA,ECFP,5
FR,HENDAYE,PGT,5
FR,BEZIERS,RTZFP,5
IT,VERONA,DERAV,5
DK,ESBJERG,ECR,5
DE,RENDSBURG,ECR,5
FR,ORANGE,ECFP,5
SE,SKELLEFTEA,AVS,5
GB,EAST MIDLANDS,ECRWEB,5
LT,KAUNAS,AVS,5
IT,FANO,RTZ,5
IT,TARANTO,ECR,5
IT,OLBIA,ECSA,5
DE,STUTTGART,DERRTZ,5
ES,PONTEVEDRA,AVFP,5
DE,DUSSELDORF,ECEFP,5
RO,TIMISOARA,ECR,5
PT,HORTA,ILHA,5
FR,LIMOGES,RTZFP,5
CH,BASEL,ECFP,5
SI,BLED,AVS,5
DE,MUNICH,BGT,5
IT,COMO,RTZ,5
IT,LA SPEZIA,AVSA,5
DE,NUREMBERG,RTZE,5
FI,HELSINKI,DERBGT,5
DE,LANGEN,SXT,5
DE,MUNICH,AVP,5
GB,STEVENAGE,NCRWEB,5
AU,SYDNEY,HUGHES,5
GB,READING,ECRWEB,5
CH,BASEL,DERECR,5
DE,KIEL,ECR,5
DE,OFFENBACH,AVSA,5
DE,HILDESHEIM,AVSA,5
FR,VENDOME,ECFP,5
ES,VIGO,AV1,5
IT,FORLI,AER,5
IT,VERONA,ECE,5
FR,PARIS,ECLXFP,5
DE,BAD HOMBURG,ECFP,5
DE,FRANKFURT,ECCAMP,5
ES,SEGOVIA,AVWEB,5
ES,MADRID,ECRLACFP,5
GB,EXETER,AVS,5
GB,PORTSMOUTH,AVS,5
FR,DEAUVILLE,RTZFP,5
IT,MILAN,AVDF,5
ES,VALENCIA,EC1,5
FR,LOURDES,ECFP,5
IT,MILAZZO,ECR,5
DE,LAHR,ECR,5
ES,BILBAO,AVWEB,5
IT,BOLOGNA,DERAV,5
GB,BOURNEMOUTH,ECFP,5
GB,HULL,ECRWEB,5
IE,GALWAY,DERECR,5
IT,REGGIO CALABRIA,AVS,5
DE,NUREMBERG,DERECR,5
DE,COLOGNE,ECSA,5
FR,BOURG ST MAURICE,ECR,5
IT,AVELLINO,RTZ,5
GB,JERSEY,ECR5,5
IT,BERGAMO,AVSA,5
GB,DURHAM TEES VALLEY,ECFP,5
FR,LANNION,ECR,5
GB,BRISTOL,DERNCR,5
DE,ESSEN,ECR,5
BR,GOIANIA,UNIDAS,5
PT,CASCAIS,EC1FP,5
AU,CLAYTON,ECR,5
PT,CASCAIS,NCR,5
DE,HEILBRONN,AVSA,5
DE,CHEMNITZ,AVS,4
GB,WIGAN,NCRWEB,4
IT,LA SPEZIA,DERAV,4
CH,LANGENTHAL,ECR,4
DE,HAHN,NCRWEB,4
NO,SVOLVAER,ECR,4
CA,VICTORIA,BGT,4
DE,AHRENSBURG,AVS,4
DE,DRESDEN,DERAV,4
AT,SALZBURG,SXT,4
DE,REUTLINGEN,ECR,4
DE,HEIDELBERG,DERECR,4
DE,DACHAU,AVS,4
FR,FIGARI,RTZFP,4
FR,NANTES,DERECR,4
DE,KONSTANZ,ECI,4
FR,EVRY,ECFP,4
FR,MANTES LA JOLIE,ECFP,4
IT,ANCONA,AVSA,4
FR,RENNES,PGT,4
MX,PUEBLA,ECR,4
HR,POREC,ECR2,4
DE,HEILBRONN,RTZ,4
DK,KARUP,ECR,4
AU,MACKAY,ECR,4
NL,THE HAGUE,RTZ,4
DE,WUERZBURG,ECSA,4
FR,CAVAILLON,RTZFP,4
GB,BRADFORD,NCRWEB,4
FR,DUNKERQUE,ECFP,4
IT,CASTELFRANCO VENETO,ECR,4
GB,IPSWICH,NCRWEB,4
DE,HANOVER,NCRWEB,4
DE,KOBLENZ,SXT,4
GB,NEWPORT,NCR,4
FR,SAUMUR,ECR,4
DE,DARMSTADT,ECFP,4
ES,ALICANTE,RTZ,4
IT,MILAN,AERSA,4
TR,KUSADASI,AECHF,4
DE,KIEL,AVS,4
PT,LAGOS,ECFP,4
DE,BREMERHAVEN,AVS,4
SE,UMEA,ECR,4
IT,BOLOGNA,ECE,4
DE,LEIPZIG,RTZ,4
FR,BELFORT,ECFP,4
IT,CIVITAVECCHIA,ECSA,4
GB,CHESTER,ECR,4
DE,MUNICH,ECIESAFP,4
FR,GENEVA,DERNCR,4
GR,MYCONOS,AEU,4
ES,BARCELONA,EC1FP,4
DE,DORTMUND,RTZ,4
ES,BILBAO,DERECR,4
GB,LEICESTER,ECRWEB,4
MA,FEZ,ECR2,4
GB,CRAWLEY,AVS,4
DE,BOCHUM,ECR,4
DE,DRESDEN,ECSA,4
FR,MONTELIMAR,ECR,4
CH,ST GALLEN,ECR,4
IT,SORRENTO,RTZSA,4
FI,TURKU,ECR,4
AU,SURFERS PARADISE,ECR,4
NL,ENSCHEDE,ECR,4
GB,SWINDON,RTZ,4
DE,ALZEY,AVS,4
FR,ANGOULEME,DERECR,4
DE,HANOVER,DERRTZ,4
PT,HORTA,AVS,4
LT,VILNIUS,ECR,4
DE,ROTENBURG,SXT,4
DE,KAISERSLAUTERN,AVSA,4
BR,RIO DE JANEIRO,ECR,4
DE,HOF,AVSA,4
DE,ROSTOCK,ECR,4
CS,BRNO,BGFP,4
DE,BOCHUM,SXT,4
ES,ALICANTE,DERECR,4
DE,GELSENKIRCHEN,ECR,4
CS,KARLOVY VARY,RTZ,4
GB,TAUNTON,NCR,4
SE,JONKOPING,RTZ,4
SE,KRISTIANSTAD,ECR,4
ES,SANTANDER,ECR,4
GB,DONCASTER,ECFP,4
ES,SANTIAGO,RTZ,4
DE,STUTTGART,ECE,4
AT,ST POELTEN,ECR,4
GB,DURHAM TEES VALLEY,ECRWEB,4
FR,CHERBOURG,PGT,4
NL,NYMEGEN,RTZ,4
IT,REGGIO CALABRIA,AVSA,4
SE,VISBY,ECR,4
HR,ZAGREB,DERECR,4
DE,BONN,RTZ,4
FR,BESANCON,ECFP,4
FR,EPERNAY,ECR,4
DE,ROSTOCK,AVS,4
DE,KELSTERBACH,ECR,4
DE,ERDING,ECSA,4
FR,VIENNE,ECFP,4
FR,LANGRES,ECFP,4
DE,GOETTINGEN,AVSA,4
DE,AACHEN,ECFP,4
SE,SUNDSVALL,ECR,4
FR,CANNES,ELT,4
PL,POZNAN,AVS,4
IT,PESCARA,RTZ,4
GB,PRESTON,NCR,4
GB,SHEFFIELD,ECFP,4
FR,VERSAILLES,DERECR,4
NO,BODOE,RTZ,4
GB,ABERDEEN,RTZ,4
GB,CHESTER,NCRWEB,4
LT,VILNIUS,UNIRENT,4
FR,PERIGUEUX,RTZFP,4
ES,SANTIAGO,AVWEB,4
AU,GLADSTONE,ECR,4
DE,MARBURG,ECFP,4
DE,FLENSBURG,ECR,4
GB,CROYDON,RTZCA,4
FR,LIMOGES,DERECR,4
IT,BARI,DERAV,4
RU,EKATERINBURG,ECR,4
GB,TEESSIDE,ECRWEB,4
GB,TELFORD,NCR,4
RU,SAINT PETERSBURG,ECR,4
FR,DAX,ECFP,4
HU,PECS,BGT,4
IT,PISA,DERAV,4
CA,QUEBEC CITY,ALM,4
AU,HERVEY BAY,ECR,4
FR,ST. MAXIME SUR MER,ECFP,4
LV,RIGA,ECR,4
DE,BIELEFELD,ECFP,4
ES,MALAGA,DERRTZ,4
CH,CRISSIER,ECR,4
CH,GSTAAD,RTZ,4
DE,GARMISCH,DERAV,4
GB,PRESTON,ECFP,4
DE,BERGISCH GLADBACH,ECIFP,4
DE,BAD HOMBURG,ECR,4
IT,BARI,RTZSA,4
DE,FRIEDRICHSHAFEN,ECFP,4
IT,LUCCA,DERAV,4
GB,MAIDSTONE,NCR,4
SI,BLED,NCR,4
DE,KEMPTEN,AVSA,4
DE,DORTMUND,SXT,4
IT,FLORENCE,ECRZA,4
ES,JAEN,AVFP,4
AU,SURFERS PARADISE,RTZ,4
MT,LUQA,NCR,4
DK,AALBORG,AVS,4
IT,SIENA,ECDF,4
NL,THE HAGUE,AVS,4
IL,EILAT,SHL,4
IT,SIENA,RTZSA,4
FR,PERPIGNAN,PGT,4
IT,MONZA,ECR,4
IT,VITERBO,AVS,4
IT,ROME,ELT,4
GB,ABERYSTWYTH,ECFP,4
GR,ALEXANDROUPOLIS,RTZ,4
DE,KREFELD,AVSA,4
NZ,NAPIER,BGFP,4
DE,LIPPSTADT,AVS,4
DE,BOEBLINGEN,RTZ,4
FR,TOULOUSE,DERNCR,4
DE,WILHELMSHAVEN,ECFP,4
DE,AACHEN,AVSA,4
DE,HEIDELBERG,SXT,4
GB,LUTON,ECR,4
AR,EL CALAFATE,ECR,4
FR,AUXERRE,ECR,4
FR,CRETEIL,ECFP,4
FR,CANNES,DERECR,4
DK,FREDERIKSHAVN,AVS,4
NL,LEEUWARDEN,AVS,4
NO,KIRKENES,RTZFP,4
DE,VERDEN,RTZ,4
IT,BRINDISI,AVSA,4
DE,REUTLINGEN,RTZ,4
ES,LA CORUNA,ECR,4
DE,BIELEFELD,AVS,4
NZ,CHRISTCHURCH,BRITZ,4
IT,PISA,ECE,4
FR,ALBI,ECFP,4
GB,CARDIFF,ECR,4
GB,READING,AVS,4
DE,LEVERKUSEN,ECFP,4
FR,MASSY,ECR,4
NL,AMERSFOORT,AVS,4
ZA,HOEDSPRUIT,AVS,4
FR,MEAUX,ECFP,4
GB,LINCOLN,NCRWEB,4
GB,PETERBOROUGH,NCRWEB,4
SE,NORRKOPING,AVS,4
DE,WILHELMSHAVEN,ECR,4
IT,LUCCA,DERECR,4
RO,BUCHAREST,AVS,4
GB,LONDON,AVP,4
BR,PORTO ALEGRE,ECR,4
IE,KILLARNEY,ECRIK,4
IT,TRENTO,AVS,4
DE,UNTERSCHLEISSHE,AVSA,4
ES,BILBAO,ECFLY,4
BE,OSTEND,ECFP,4
IT,MILAN,ECRZA,4
SK,BRATISLAVA,NCR,4
BE,BRUSSELS,ECE,4
GB,GLOUCESTER,ECFP,4
IT,TRAPANI,AER,4
MX,QUERETARO,ECR,4
ES,VALLADOLID,ECFP,4
FR,METZ,DERECR,4
ES,SALAMANCA,ECR,4
DE,MUNICH,NCRFLY,4
GB,HEREFORD,RTZ,4
DE,NUREMBERG,AVESA,4
FR,GRENOBLE,DERECR,4
PL,POZNAN,BGT,4
GB,SLOUGH,RTZCA,4
SE,KARLSKRONA,ECR,4
BE,LIEGE,RTZ,4
NL,BREDA,RTZ,4
GB,BRADFORD,NCR,4
DE,REGENSBURG,ECR,4
IE,CORK,EC1,4
FR,CHAMONIX,ECR,4
ZA,SANDTON,NCR2,4
NL,TILBURG,ECR,4
GB,DARTFORD,NCRWEB,4
DE,ESSLINGEN,AVS,4
IT,ALGHERO,RTZ,4
DE,BAD HERSFELD,ECFP,4
DE,BREMEN,NCRWEB,4
DK,AALBORG,DERECR,4
CH,LUCERNE,DERECR,4
DE,BREMERHAVEN,NCR,4
GB,TAUNTON,ECRWEB,4
DE,KELSTERBACH,AVE,4
FR,NARBONNE,DERECR,4
DE,ETTLINGEN,ECIFP,4
FR,LA SEYNE SUR MER,ECFP,4
BE,LEUVEN,AVS,4
GR,PREVEZA,RTZ,4
DE,NUERTINGEN,ECFP,4
GB,SHEFFIELD,NCRWEB,4
IT,NAPLES,AVDF,4
DE,PADERBORN,ECFP,4
FR,CASTELNAUDARY,RTZFP,4
DE,BOCHOLT,ECR,4
DE,DORTMUND,AVSA,4
IT,ROME,ECRZA,4
DE,BREMERHAVEN,ECFP,4
FR,ST. MALO,ECR,4
GB,CROYDON,NCR,4
GB,KIRKWALL,ECR,4
FR,QUIMPER,RTZFP,4
GB,SLOUGH,AVS,4
ES,SEVILLA,DERRTZ,4
DK,RONNE,ECR,4
DE,BAYREUTH,ECR,4
DK,BILLUND,RTZ,4
IL,TEL AVIV,SESHIR,4
IT,PESCARA,AVSA,4
MX,LEON,THT,4
DE,DUSSELDORF,DERRTZ,4
CN,HONG KONG,BURGUNDY,4
DE,PADERBORN,SXT,4
JO,AMMAN,OMAISH,3
DE,NORDERSTEDT,ECIFP,3
DE,BREMEN,SXT,3
GB,ABERYSTWYTH,ECRWEB,3
AT,KITZBUEHEL,AVS,3
ES,LA CORUNA,RTZ,3
DE,HAMELN,ECR,3
CH,BASEL,AVE,3
MQ,FORT DE FRANCE,ECR,3
HU,MISKOLC,ECR,3
DE,GARMISCH,AVESA,3
IT,OSTIA LIDO,ECR,3
FR,PAU,DERECR,3
ES,MARBELLA,ECR,3
FR,MACON,ECFP,3
NO,AALESUND,RTZ,3
IE,CORK,DERNCR,3
PT,ALBUFEIRA,EC1FP,3
GB,WORCESTER,AVS,3
DE,IDAR OBERSTEIN,ECR,3
DE,AMBERG,ECR,3
FR,ALES,ECFP,3
GB,TRURO,AVS,3
DE,JENA,AVS,3
BE,KORTRIJK,ECFP,3
GB,BRACKNELL,NCR,3
DE,SCHORNDORF,AVS,3
DE,GELSENKIRCHEN,RTZ,3
ES,ZARAGOZA,ECFP,3
DE,WEILHEIM,RTZ,3
DE,KONSTANZ,ECE,3
GB,FULHAM,NCRWEB,3
AU,BALLINA,ECR,3
DE,MERSEBURG,RTZ,3
IT,STRESA,AVSA,3
FR,NIMES,DERECR,3
ES,ALGECIRAS,ECR,3
DE,FUERTH,ECFP,3
ES,TORREMOLINOS,ECR,3
DE,DUISBURG,ECR,3
CH,LOCARNO,RTZ,3
DE,COLOGNE,RTZE,3
CH,LAUSANNE,DERECR,3
DE,SCHWEINFURT,ECFP,3
ES,BARCELONA,DERRTZ,3
GB,EDINBURGH,SXT,3
GB,CHELMSFORD,NCR,3
IT,MASSA,ECR,3
PT,LAGOS,ECR,3
GB,WORCESTER,RTZ,3
DE,SINDELFINGEN,AVESA,3
DE,RHEINE,AVS,3
DE,PEINE,AVS,3
CH,WINTERTHUR,ECR,3
ES,ALICANTE,AVWEB,3
DE,GREIFSWALD,ECR,3
ES,PONTEVEDRA,EC1FP,3
GB,GLASGOW,BGT,3
GB,BURTON ON TRENT,NCRWEB,3
GB,DOVER,RTZCA,3
AR,CORDOBA AR,ECR,3
GB,BRIGHTON,ECRWEB,3
DE,HANOVER,DERECR,3
TH,PHUKET,AVS,3
DE,BIELEFELD,ECR,3
DE,BREMEN,SXTEAST,3
BE,ANTWERP,RTZ,3
DE,OLDENBURG,ECE,3
FR,LISIEUX,ECR,3
DE,ROSENHEIM,ECI,3
FR,DOLE,ECFP,3
GB,TAUNTON,NCRWEB,3
GB,NORWICH,ECR,3
FR,REDON,ECR,3
DE,BREMEN,ECI,3
AU,FREMANTLE,RTZFP,3
AU,MELBOURNE,HUGHES,3
FR,GUINGAMP,ECFP,3
SE,LIDKOPING,ECR,3
DE,HOF,RTZ,3
IT,CATANIA,DERAV,3
FR,BOVES,ECR,3
ZA,PRETORIA,BGT,3
DE,LINDAU,RTZ,3
FR,MONTAUBAN,ECFP,3
FR,MONTARGIS,ECR,3
DE,BAD TOELZ,AVSA,3
NL,AMSTERDAM,NCRFLY,3
SE,SAVE,AVS,3
ES,DENIA,AVFP,3
IT,FORLI,RTZ,3
GB,BASINGSTOKE,NCRWEB,3
GR,KALAMATA,AEUNCR,3
FR,VALENCE,DERECR,3
IT,PIACENZA,ECR,3
FR,LOUVIERS,ECFP,3
DE,WIESBADEN,ECFP,3
DE,FRIEDRICHSHAFEN,AVSA,3
FR,LILLE,ECE,3
MY,JOHOR BAHRU,AVS,3
FR,CHALON SUR SAONE,ECFP,3
DE,DINGOLFING,ECIFP,3
IT,CINISI,ECR,3
LU,LUXEMBOURG,DERECR,3
GB,TRURO,ECRWEB,3
ES,ALMERIA,ECR,3
GB,SALISBURY,DERNCR,3
IT,VERONA,ECDF,3
DE,LANDAU,AVSA,3
DE,LENNESTADT,ECFP,3
CH,KLOTEN,ECFP,3
AU,SURFERS PARADISE,RTZFP,3
TR,ISTANBUL,ARTI,3
BR,SAO LUIS,UNIDAS,3
GB,BOURNEMOUTH,ECR,3
AU,DEVONPORT,RTZ,3
FR,LE CREUSOT,NCR,3
DE,GARMISCH,ECSAFP,3
GB,READING,ECR,3
GB,GLASGOW,DERRTZ,3
PT,VIANA CASTELO,AV1FP,3
CH,MONTREUX,ECFP,3
SE,BORLANGE,ECR,3
AU,AIRLIE BEACH,RTZFP,3
IT,FORLI,AERSA,3
GB,BRISTOL,RTZ,3
CR,TAMARINDO BEACH,ECR,3
DE,NUREMBERG,ECI,3
IT,TURIN,DERECR,3
IT,IMPERIA,ECR,3
ES,SEVILLA,AV1,3
GB,SWINDON,ECFP,3
ES,LUGO,AVFP,3
GB,READING,ECFP,3
DE,KIEL,AVSA,3
DE,MUENSTER,ECR,3
MX,PUERTO VALLARTA,THT,3
DE,BURGHAUSEN,ECFP,3
FR,BASEL,ECR,3
DE,OBERURSEL,AVS,3
DE,LINDAU,AVSA,3
ES,LLEIDA,AVFP,3
ES,BARCELONA,AVS,3
DE,MUNICH,DERSXT,3
DE,DETMOLD,ECFP,3
IT,CROTONE,AVS,3
CY,NICOSIA,SXT,3
DE,MANNHEIM,MCRNT,3
DE,FRANKFURT,SXTSA,3
IT,PERUGIA,RTZSA,3
NL,HILVERSUM,ECR,3
PT,CARVOEIRO,ECFP,3
FR,NANCY,ECR,3
LT,KAUNAS,UNIRENT,3
GB,MANCHESTER,BGT,3
GB,BALLASALLA,ECFP,3
ES,ALMERIA,RTZ,3
IT,BOLOGNA,AERSA,3
AU,FREMANTLE,ECR,3
IT,COMO,ECSA,3
DE,REGENSBURG,AVS,3
DE,HAHN,ECSA,3
PT,COIMBRA,ECR,3
SE,GOTHENBURG,DERAV,3
DE,WORMS,AVSA,3
DE,TRIER,RTZ,3
GB,FISHGUARD,RTZ,3
CA,EDMONTON,ALM,3
IT,COMO,AVSA,3
DE,MOENCHENGLADBACH,AVSA,3
DE,DRESDEN,ECEFP,3
ES,SAN SEBASTIAN,AEMCHF,3
DE,ESSEN,ECFP,3
FI,KUUSAMO,BGT,3
TN,DJERBA,ECR,3
SE,KIRUNA,ECR,3
IT,COMO,ECFLY,3
GR,CORFU,RTZ,3
GB,DERBY,ECFP,3
IE,CORK,THT,3
AU,HOBART,HUGHES,3
DE,STUTTGART,RTZE,3
GB,CARDIFF,DERNCR,3
FR,ROUEN,DERRTZ,3
GB,CARLISLE,AVS,3
PL,RZESZOW,AVS,3
GB,INVERNESS,JAJCHF,3
ES,ALICANTE,AV1,3
FR,DRAGUIGNAN,ECR,3
GB,LEEDS,AVS,3
PT,FARO,NCR1,3
CS,BRNO,BGEFP,3
DE,OFFENBACH,AVS,3
GB,TELFORD,ECFP,3
DK,AARHUS,RTZ,3
FR,BEAUVAIS,ECR,3
IT,CATANIA,AVDF,3
ES,CARTAGENA,ECR,3
DE,MAINZ,ECE,3
BE,BRUSSELS,AVE,3
IT,SIRACUSA,AVS,3
DE,FREIBURG,ECIFP,3
BG,VARNA,AVS,3
UA,KHARKIV,AVS,3
ES,ZARAGOZA,ECR,3
IT,LA SPEZIA,DERECR,3
GB,BASILDON,NCRWEB,3
DE,TUTTLINGEN,AVS,3
DK,HILLEROED,ECR,3
MX,TULUM,ECR,3
GB,BLACKPOOL,AVS,3
PR,MAYAGUEZ,THT,3
DE,POTSDAM,ECR,3
GR,LEFKADA,ACR,3
DE,GOERLITZ,AVS,3
DE,HANOVER,ECI,3
ES,LA CORUNA,AVWEB,3
GB,WOKING,ECFP,3
ES,ALMERIA,AVWEB,3
FR,SALON DE PROVENCE,ECFP,3
DE,SCHWERIN,AVSA,3
FR,ANGERS,DERECR,3
FR,FREJUS,ECR,3
IT,POTENZA,ECR,3
GR,SKIATHOS,ACR,3
DE,MARKTREDWITZ,ECR,3
GB,TEESSIDE,RTZ,3
GR,AGIOS NIKOLAOS,RTZ,3
GB,ABERDEEN,DERNCR,3
DE,WUERZBURG,DERECR,3
NO,KRISTIANSUND,RTZ,3
FR,CANNES,ECE,3
PT,PESO DA REGUA,EC1FP,3
GR,NAXOS,AEUNCR,3
GB,GLOUCESTER,ECRWEB,3
CH,ST. GALLEN,RTZ,3
GB,WARRINGTON,NCRWEB,3
DE,FUERSTENFELDBRUCK,AVS,3
DE,SAARBRUECKEN,SXT,3
PT,LAGOS,AVS,3
GR,PATRAS,AEU,3
GB,COLWYN BAY,ECR,3
DE,LANDSBERG,RTZ,3
IT,RIMINI,ECSA,3
DE,WAIBLINGEN,ECFP,3
FR,BOURG EN BRESSE,ECFLY,3
CH,BIEL,ECR,3
ZA,RICHARDS BAY,AVS,3
SE,HALMSTAD,ECR,3
NL,ARNHEM,AVS,3
DE,GARMISCH,ECFP,3
GB,MIDDLESBROUGH,NCR,3
DE,KELSTERBACH,ECIESA,3
DE,MINDEN,AVS,3
FR,MONTPELLIER,DERNCR,3
GB,MIDDLESBROUGH,NCRWEB,3
FR,CARCASSONNE,NCR,3
IE,ROSSLARE,EC1,3
DE,ERLANGEN,ECIFP,3
FI,JYVASKYLA,BGT,3
IT,SAN BENEDETTO,AVS,3
GB,PRESTON,ECRWEB,3
DE,WINSEN,ECR,3
NL,MAASTRICHT,ECR,3
DE,GUETERSLOH,AVS,3
PT,BRAGA,NCR1,3
ZZ,BUDVA,ECR,3
IT,CUNEO,ECR,3
GB,LEEDS,RTZCA,3
GB,DUNDEE,ECFP,3
DE,NEURUPPIN,AVSA,3
DE,FRIEDRICHSHAFEN,SXT,3
MT,LUQA,ECR,3
GB,ORPINGTON,NCR,3
FR,VALENCIENNES,ECR,3
AR,SALTA,ECR,3
GB,BIRMINGHAM,WACHF,3
ES,PAMPLONA,DERAV,3
DE,MUNICH,ELT,3
FR,ROUEN,DERNCR,3
AU,MACKAY,RTZFP,3
GB,CANTERBURY,RTZ,3
FR,ROANNE,ECR,3
ES,VITORIA,AVFP,3
IT,CATANIA,DERRTZ,3
GB,PORTSMOUTH,ECRWEB,3
GB,MILTON KEYNES,NCR,3
GR,PATRA,AEUNCR,3
FR,MONTLUCON,ECFP,3
DE,STRALSUND,RTZ,3
GB,HAMILTON,NCRWEB,3
FR,ST. GAUDENS,ECR,3
SE,BORLANGE,RTZ,3
IT,CANNIGIONE,AVS,3
DE,WIESBADEN,ECI,3
PT,EVORA,AVS,3
FR,MONTELIMAR,DERECR,3
GB,BATH,DERNCR,3
DE,LUDWIGSBURG,ECR,3
SI,KRANJSKA GORA,NCR,3
SE,KARLSKOGA,ECR,3
GB,HEMEL HEMPSTEAD,NCRWEB,3
ZA,KRUGER,AVS,3
DE,WUERZBURG,ECI,3
SE,LUND,ECR,3
DE,HOLZMINDEN,ECR,3
DE,KASSEL,ECR,3
DE,BADEN BADEN,DERAV,3
GB,NEWBURY,NCR,3
DE,SCHWAEBISCH GMUEND,RTZ,3
GB,LUTON,RTZ,3
DE,WIESBADEN,ECIFP,3
DE,BONN,AVE,3
ES,FUENGIROLA,AVFP,3
GB,AYLESBURY,ECR,3
NL,ENSCHEDE,AVS,3
NL,APELDOORN,AVS,3
IT,PORDENONE,ECE,3
IT,VENICE,ECRZA,3
NZ,WHANGAREI,RTZ,3
DE,FULDA,AVS,3
IT,TERRANOVA BRACCIO,AVS,3
DE,OFFENBURG,ECFP,3
NO,MOSJOEN,ECR,3
CA,EDMONTON,THT,3
FR,AVIGNON,DERRTZ,3
DE,COLOGNE,DERRTZ,3
IT,POZZOULI,AVSA,3
IT,GRAVELLONA,ECR,3
AU,GLADSTONE,RTZFP,3
FR,GRENOBLE,RTZFP,3
PT,LAGOS,EC1FP,3
DE,HEIDELBERG,ECSA,3
GB,SLOUGH,RTZ,3
FI,KUOPIO,BGT,3
GB,CROYDON,ECFP,3
GB,BRISTOL,DERECR,3
IT,LECCO,AVS,3
IT,FLORENCE,EXCLUSIVE,3
IT,CATANIA,AERSA,3
MX,LEON,ECR,3
GB,WEYMOUTH,ECFP,3
IT,SAN REMO,AVSA,3
GR,PATRAS,DERECR,3
ES,CASTELLON,AVFP,3
AT,GRAZ,DERAV,3
GB,FELTHAM,RTZ,3
CA,LONDON CA,ALM,3
AU,BROOME,ECR,3
DE,KREFELD,AVS,2
MX,PLAYA DEL CARMEN,THT,2
GB,SOUTHPORT,ECRWEB,2
DE,WEEZE,RTZ,2
DE,HAMBURG,ECCAMP,2
FR,DINAN,ECFP,2
DE,HAMBURG,DERAV,2
DE,GRUENBERG,AVS,2
GB,SWANSEA,NCRWEB,2
DE,GELSENKIRCHEN,ECFP,2
DE,STUTTGART,ECSAFP,2
ES,FIGUERAS,DERAV,2
IT,UDINE,DERECR,2
DE,HAMBURG,DERRTZ,2
IT,CASSINO,AVS,2
SI,KRANJSKA GORA,AVS,2
RO,BRASOV,AVS,2
FR,CALAIS,DERNCR,2
FR,LA BAULE,ECFP,2
IT,ALBA,AVS,2
NO,LEKNES,ECR,2
FI,JOENSUU,ECR,2
FR,ANTIBES,ECRLX,2
TH,BANGKOK,AVS,2
FR,CALVI,ECFP,2
ZA,MARGATE,AVS,2
ES,BENIDORM,AVFP,2
DE,AMBERG,ECFP,2
DK,ODENSE,RTZ,2
CH,BERN,ECFP,2
GB,KINGSTON,AVS,2
ES,GRANADA,DERAV,2
IT,ASCOLI PICENO,AVS,2
GB,STANSTED,ALMGS,2
DE,GOERLITZ,AVESA,2
IT,RAVENNA,AVS,2
FR,DEAUVILLE,DERECR,2
FR,QUIMPER,DERECR,2
GB,MAIDSTONE,NCRWEB,2
DE,BERGEN,ECR,2
FR,BOURGES,ECR,2
FR,BIARRITZ,DERNCR,2
FI,PORI,ECR,2
DE,STUTTGART,DERECR,2
HR,SPLIT,DERECR,2
CA,VANCOUVER,THT,2
TH,HUA HIN,AVS,2
DE,BERLIN,AVP,2
AT,KLAGENFURT,BGT,2
DE,KOBLENZ,ECSAFP,2
DE,DUSSELDORF,ECI,2
DE,BADEN BADEN,SXT,2
DK,ODENSE,DERECR,2
DE,AURICH,ECFP,2
NL,DEVENTER,RTZ,2
DE,ERDING,ECIFP,2
ES,VIGO,RTZ,2
BG,BOURGAS,ECR,2
DE,DUEREN,ECR,2
DE,RUESSELSHEIM,AVS,2
DE,HARBURG,AVS,2
DE,KEMPTEN,ECFP,2
DE,VILLINGEN,RTZ,2
GB,BASINGSTOKE,NCR,2
DE,VERDEN,ECFP,2
ES,IRUN,ECFP,2
IT,GARDA,ECR,2
DE,HAHN,ECI,2
FR,PORTO VECCHIO,ECR,2
BR,VITORIA BR,UNIDAS,2
CH,ZURICH,DERNCR,2
DE,RAMSTEIN,ECSA,2
DE,AACHEN,DERAV,2
DE,KEMPTEN,RTZ,2
IT,RIVA DEL GARDA,RTZ,2
NO,BERGEN,DERRTZ,2
IT,CATANIA,RTZSA,2
FR,LE MANS,DERNCR,2
DE,HEIDELBERG,AVE,2
FR,CHERBOURG,NCR,2
BE,LIEGE,AVS,2
SG,SINGAPORE,AVS,2
IT,CHIETI SCALO,AVS,2
GB,POOLE,NCRWEB,2
TR,BELEK,ECR,2
IT,ALESSANDRIA,AVS,2
DE,PADERBORN,AVSA,2
FR,DREUX,ECFP,2
DE,FRANKFURT,DERNCE,2
ZA,PHALABORWA,AVS,2
DE,OLDENBURG,AVSA,2
FR,VILLENEUVE SUR LOT,ECFP,2
CH,MONTREUX,DERECR,2
FR,TOULON,DERECR,2
GB,WOODFORD,ECRWEB,2
IT,BRESCIA,AVS,2
FR,LE LAVANDOU,RTZFP,2
ES,SANTIAGO,DERECR,2
ES,VALENCIA,AVWEB,2
IT,NAPLES,ECFLY,2
IE,GALWAY,EC1,2
DE,MANNHEIM,ECFP,2
DE,BRAUNSCHWEIG,ECR,2
GB,TEESSIDE,ECR,2
PT,NAZARE,AV1FP,2
AT,DORNBIRN,ECR,2
DK,RONNE,AVS,2
FR,ST. MAXIME SUR MER,ECR,2
DE,KAISERSLAUTERN,ECI,2
SK,KOSICE,NCR,2
DE,MEMMINGEN,ECR,2
IT,RIETI,RTZ,2
IT,FERRARA,AVS,2
GR,ALEXANDROUPOLIS,ECR,2
DE,STUTTGART,ECIESA,2
DE,COLOGNE,ECIFP,2
FR,DINAN,ECR,2
DE,FRECHEN,RTZ,2
SE,UPPSALA,ECR,2
DE,RUESSELSHEIM,AVSA,2
DE,FRANKFURT,SXTCHF,2
DE,ALTENBURG,RTZ,2
FR,VILLEFRANCHE SUR SAO,RTZFP,2
IT,RAGUSA,AVS,2
DE,SALZGITTER,AVS,2
GB,BATH,BGT,2
DE,FREIBERG,AVSA,2
FR,BEZIERS,DERECR,2
PT,BRAGA,AVS,2
FR,GUINGAMP,RTZFP,2
DE,LANGEN,ECI,2
GB,PLYMOUTH,SXT,2
DE,OFFENBACH,ECFP,2
DE,DREIEICH,AVS,2
SI,LJUBLJANA,BGT,2
DK,KOLDING,ECR,2
DE,WESEL,ECR,2
DE,WORMS,AVS,2
DE,SAARBRUECKEN,ECI,2
FR,AVRANCHES,ECR,2
DE,WUPPERTAL,AVS,2
AU,NEWCASTLE,ECR,2
GB,CHESTER,AVS,2
GR,HALKIDIKI,ECR,2
ES,OVIEDO,EC1,2
IT,LECCE,ECFLY,2
AV,ANGUILLA,THT,2
ES,BARCELONA,ECFLY,2
CA,COMOX,BGT,2
IT,TARANTO,ECSA,2
AU,ST. KILDA,ECR,2
DE,AACHEN,SXT,2
SE,LINKOPING,AVS,2
IT,GENOA,RTZSA,2
AG,ST. JOHNS,ECR,2
GR,KARPATHOS,ECR,2
DE,NEUSTRELITZ,ECR,2
IT,PRATO,RTZ,2
IT,GROSSETO,AVSA,2
DK,HIRTSHALS,ECR,2
ES,BURGOS,AVWEB,2
IT,TRAPANI,AVS,2
PT,FUNCHAL,AVS,2
AT,VIENNA,NCR,2
GB,COVENTRY,ECFP,2
IT,CHIETI SCALO,ECR,2
AU,EXMOUTH,ECR,2
AU,GRIFFITH,ECR,2
GB,YORK,AVS,2
GB,HEMEL HEMPSTEAD,ECR,2
GB,HIGH WYCOMBE,NCR,2
GB,HARROGATE,BGT,2
GB,CARLISLE,NCRWEB,2
FR,VANNES,ECR,2
IT,POTENZA,AVS,2
DE,ANSBACH,RTZ,2
DE,RAMSTEIN,ECIFP,2
DE,HANOVER,NCE,2
DE,MARBURG,ECI,2
NL,NIJMEGEN,AVS,2
NL,ROTTERDAM,AVS,2
DE,ELMSHORN,AVS,2
DE,EISENACH,SXT,2
DE,BAD TOELZ,AVS,2
DE,ERDING,ECSAFP,2
DE,BREMERHAVEN,ECSAFP,2
IL,NETANYA,SHL,2
DE,COLOGNE,DERNCR,2
GB,BIRMINGHAM,DERECR,2
DK,AALBORG,RTZ,2
PT,VISEU,AV1FP,2
GB,STOKE ON TRENT,NCRWEB,2
BR,CAMPINAS,UNIDAS,2
CH,LAUSANNE,SXT,2
RU,SAMARA,ECR,2
GB,GLASGOW,ALMGS,2
GB,CANTERBURY,RTZCA,2
IT,SORRENTO,DERAV,2
IT,SORRENTO,DERRTZ,2
GB,GUILDFORD,RTZCA,2
AT,VIENNA,DERAV,2
IT,LA SPEZIA,RTZ,2
FR,BLOIS,DERECR,2
FR,MONTPELLIER,DERRTZ,2
MX,MONTERREY,ECR,2
AT,LINZ,ECE,2
DE,KARLSRUHE,RTZ,2
GB,WEYMOUTH,ECRWEB,2
FR,CAVAILLON,ECR,2
ES,ORENSE,ECFP,2
FR,ANNECY,ECE,2
DE,ERLANGEN,ECI,2
GB,GRIMSBY,NCR,2
ZA,PAARL,AVS,2
DE,BREMEN,DERECR,2
DE,OLDENBURG,RTZ,2
IT,TURIN,DERAV,2
DE,SCHWAEBISCH HALL,RTZ,2
DE,AACHEN,DERECR,2
IT,PADOVA,DERECR,2
IT,MAROSTICA,AVS,2
ES,SEVILLA,EC1FP,2
PL,BIALYSTOK,NCR2,2
FR,MASSY,ECFP,2
IT,PISA,AERDF,2
CH,NEUCHATEL,ECFP,2
ZA,KING WILLIAMSTOWN,AVS,2
PT,ALBUFEIRA,AVS,2
FR,BESANCON,ECR,2
GR,PATRAS,RTZ,2
GB,WAKEFIELD,NCRWEB,2
AU,NOOSA HEADS,RTZFP,2
ES,GRANADA,DERECR,2
NO,KIRKENES,RTZ,2
RO,BRASOV,THT,2
DE,EISLINGEN,RTZ,2
FR,AVALLON,DERECR,2
BR,NATAL PARNAMIRIM,ECR,2
GR,KAVALA,AEUNCR,2
FR,FREJUS,ECFP,2
DE,ERLANGEN,AVE,2
GB,BEDFORD,NCR,2
IT,VENICE,ECDF,2
FR,LYON,ECFLY,2
DE,DRESDEN,ECIFP,2
FR,GRANVILLE,ECR,2
IT,PISA,ECDF,2
DE,GIESSEN,NCRWEB,2
ZA,LADYSMITH,AVS,2
CY,LIMASSOL,SXT,2
GB,WARRINGTON,NCR,2
NO,MOLDE,ECR,2
TH,BANGKOK,BURGUNDY,2
DE,FRANKFURT,ECIESAFP,2
DE,OSNABRUECK,DERECR,2
GB,LEEDS,RTZ,2
NZ,INVERCARGILL,ECR,2
DE,SOEST,AVS,2
AT,GRAZ,DERECR,2
IS,REYKJAVIK,LAI,2
DE,LEIPZIG,SXT,2
ES,BENALMADENA,ECFP,2
BA,MOSTAR,SXT,2
DE,FRIEDRICHSHAFEN,ECSA,2
IS,ISAFJORDUR,NCR,2
ES,AVILES,AVFP,2
GB,DARLINGTON,ECR,2
SE,SUNDSVALL,AVS,2
DE,MEISSEN,AVS,2
FR,ROYAN,ECFP,2
DE,ESSLINGEN,ECFP,2
DE,INGOLSTADT,AVSA,2
DE,ERFURT,SXT,2
GR,SANTORINI,DERECR,2
GR,RHODES,DERECR,2
DE,AACHEN,AVE,2
FR,LYON,BGT,2
IT,CIVITAVECCHIA,DERECR,2
FR,LAMBALLE,RTZFP,2
GB,PETERBOROUGH,RTZ,2
IT,JESOLO LIDO,AVS,2
SE,STENUNGSUND,AVS,2
DE,WEISLOCH,AVS,2
PR,PONCE,THT,2
FR,NANCY,PGT,2
DE,MINDEN,ECR,2
CH,CHUR,RTZ,2
FR,BOURGOIN JALLIEU,ECFP,2
GB,NORTHAMPTON,RTZ,2
AT,GRAZ,BGT,2
CA,JASPER,THT,2
GB,AYLESBURY,RTZCA,2
FR,VERSAILLES,RTZFP,2
PT,GUARDA,ECR,2
CH,JONA,ECR,2
CH,BUCHS,ECR,2
NZ,GISBORNE,RTZ,2
NL,GRONINGEN,RTZ,2
AU,WELSHPOOL,RTZFP,2
DE,DRESDEN,DERAVE,2
GB,ENFIELD,RTZCA,2
IT,LIVORNO,AVS,2
GB,ENFIELD,NCRWEB,2
AU,HERVEY BAY,RTZFP,2
ES,MARBELLA,AVWEB,2
NO,ALTA,ECR,2
DE,BADEN BADEN,ECI,2
DE,MAGDEBURG,AVSA,2
ES,SAN SEBASTIAN,DERAV,2
DE,DEGGENDORF,ECFP,2
IT,PERUGIA,AVSA,2
FR,VICHY,ECR,2
FI,LAHTI,ECR,2
ES,BILBAO,AV1,2
CH,BERN,SXT,2
IL,TEL AVIV,BURGUNDY,2
FR,EVREUX,ECFP,2
DE,LUDWIGSHAFEN,AVS,2
BG,SOFIA,SXT,2
DE,FRANKFURT,NCRSA1,2
FR,SALLANCHES,ECR,2
DE,NUREMBERG,SXTCHF,2
DE,VERDEN,ECSAFP,2
AT,SALZBURG,DERAV,2
IT,APRILIA,ECR,2
DE,MARBURG,AVSA,2
DE,BERLIN,DERECR,2
DE,RAVENSBURG,AVS,2
DE,WEIDEN,ECFP,2
DE,DUISBURG,AVS,2
IT,NAPLES,AERSA,2
DE,GELSENKIRCHEN,AVSA,2
GB,EASTBOURNE,NCR,2
NO,HAMAR,RTZFP,2
NL,HOOFDDORP,ECR,2
DE,BUTZBACH,AVS,2
IT,NEED CONFIRMATION,ECR,2
ES,MALAGA,EC1,2
DE,PASSAU,ECIFP,2
GB,SHEFFIELD,AVS,2
GB,FARNHAM,AVS,2
AU,ALICE SPRINGS,RTZ,2
PA,PANAMA CITY,THT,2
AU,NEWCASTLE AU,RTZFP,2
FR,ANGOULEME,RTZFP,2
GB,AMESBURY,AVS,2
AT,ST. ANTON,AVS,2
DE,HEIDELBERG,ECSAFP,2
DE,PADERBORN,ECIFP,2
FR,CREIL,ECFP,2
CH,LUGANO,DERECR,2
IT,MILAN,ECDF,2
HR,ZADAR,ECR,2
MX,VILLAHERMOSA,ECR,2
CH,ZURICH,NCE,2
IT,GENOA,ECDF,2
DE,ERFURT,AVS,2
CH,GENEVA,DERNCR,2
GB,SALISBURY,AVS,2
IT,GENOA,AVDF,2
HU,BALATONFOLDVAR,NCR,2
DE,OFFENBURG,AVS,2
IT,AREZZO,ECRZA,2
DE,BERLIN,DERRTZ,2
PT,CALDAS DA RAINHA,EC1,2
FR,RAMBOUILLET,ECFP,2
DE,HEIDELBERG,ECI,2
GB,AYLESBURY,ECFP,2
RO,CLUJ NAPOCA,AVS,2
DE,FRECHEN,AVS,2
DE,WUPPERTAL,ECR,2
CH,ZERMATT TAESCH,AVS,2
ZA,UMTATA,AVS,2
NZ,NEW PLYMOUTH,RTZ,2
PT,BRAGA,ECFP,2
DE,KEHL,ECR,2
DE,OSNABRUECK,AVS,2
FR,MONTCHANIN,ECFP,2
DE,LUEBECK,AVE,2
CH,VEVEY,AVS,2
DE,LEIPZIG,DERAV,2
FR,ST. RAPHAEL,ECR,2
IT,ALESSANDRIA,ECR,2
FR,ST. TROPEZ,NCR,2
FR,STRASBOURG,ECE,2
FI,HELSINKI,DERECR,2
GB,TRURO,RTZ,2
PT,PORTO,DERECR,2
SI,PORTOROZ,AVS,2
DE,BREMEN,NCRSA,2
FR,DIJON,SXT,2
FR,BONIFACIO,ECR,2
GB,STRANRAER,DERRTZ,2
DE,KEMPTEN,DERAV,2
DE,HANOVER,ECIFP,2
DE,LEIPZIG,DERECR,2
BE,OSTEND,ECR,2
DE,MUNICH,ECCAMP,2
DE,STUTTGART,ECEFP,2
CH,LAUSANNE,AVE,2
NL,BREDA,AVS,2
DE,TRAUNSTEIN,AVS,2
DE,ASCHAFFENBURG,ECI,2
SE,FALUN,AVS,2
DE,HAMBURG,DERECR,2
GR,CHANIA,DERECR,2
DE,ASCHAFFENBURG,ECFP,2
ES,MARBELLA,RTZ,2
DE,INGOLSTADT,ECR,2
ZA,RANDBURG,BGT,2
DE,MARNAU,AVS,2
PU,BERLIN PGT,PGT,2
FR,LANNION,RTZFP,2
PT,CALDAS DA RAINHA,ECFP,2
DE,KEHL,ECI,2
DE,BERCHTESGADEN,AVSA,2
AU,DUBBO,ECR,2
PT,LAGOS,AVFP,2
GB,BIRMINGHAM,DERNCR,2
NO,NARVIK,ECR,2
CA,ETOBICOKE,THT,2
DE,REGENSBURG,AVE,2
IT,MONTECATINI TERME,ECSA,2
GB,BATH,AVS,2
IT,TRIESTE,AVSA,2
GB,ORPINGTON,NCRWEB,2
GB,IPSWICH,ECRWEB,2
CA,OTTAWA,BGT,2
DE,TRIER,AVSA,2
GB,BOURNEMOUTH,BGT,2
IT,AREZZO,RTZSA,2
DE,WETZLAR,AVSA,2
FR,MARMANDE,ECFP,2
FR,TOURS,NCR,2
DK,FREDERIKSHAVN,ECR,2
AU,DARWIN,RTZFP,2
DE,ERLANGEN,ECFP,2
ES,CACERES,ECFP,2
DE,NIENBURG,SXT,2
DE,LENNESTADT,ECR,2
FR,CAGNES SUR MER,ECR,2
DE,VERDEN,ECR,2
GB,SOUTHPORT,ECFP,2
GB,CHESTER,DERNCR,2
FR,REIMS,DERECR,2
FR,LA CIOTAT,ECFP,2
GR,SAMOS,AEU,2
DE,GOEPPINGEN,AVS,2
ES,BILBAO,DERAV,2
DE,COLOGNE,SXTEAST,2
IT,BARI,ECE,2
MX,CANCUN,RTZ,2
DE,DUSSELDORF,RTZE,2
ES,LA PALMA,AVFP,2
DE,HAMBURG,RTZE,2
DE,JENA,ECR,2
NO,TROMSOE,RTZ,2
FR,LAVAL,ECR,2
GB,STAINES,AVS,2
DE,KARLSRUHE,SXT,2
CH,LOCARNO,DERECR,2
GB,BASINGSTOKE,ECRWEB,2
DE,BONN,NCE,2
DE,HAGEN,ECFP,2
IT,PESCARA,AER,2
DE,CRAILSHEIM,ECR,2
SE,UDDEVALLA,AVS,2
DK,KARUP,AVS,2
TR,URGUEP,ECR,2
DE,LUDWIGSBURG,AVS,2
FR,LA ROCHELLE,DERECR,2
DE,SCHWERIN,ECR,2
IT,REGGIO EMILIA,ECR,2
PT,LEIRIA,EC1FP,2
NL,BREDA,ECR,2
DE,HANOVER,ECEFP,2
DE,SIEGBURG,ECR,2
ES,SAN SEBASTIAN,DERECR,2
DE,SINGEN,RTZ,2
FR,CHARTRES,DERECR,2
DE,MAINZ,DERAV,2
IT,ALBENGA,AVS,2
GB,TEESSIDE,AVS,2
DE,DRESDEN,RTZE,2
DE,MOENCHENGLADBACH,AVS,2
DE,ISMANING,AVESA,2
IB,COLERAINE,NCR,2
DE,BONN,NCRSA,2
FR,BIARRITZ,DERECR,2
ZA,PLETTENBERG BAY,AVS,2
GB,STAFFORD,ECRWEB,2
IT,SAVONA,RTZSA,2
FR,ST. GERMAIN EN LAYE,ECR,2
FR,CAHORS,RTZFP,2
DE,FRIEDRICHSHAFEN,ECI,2
DO,LA ROMANA,ECR,2
DE,BAMBERG,ECR,2
PT,MOIMENTA DA BEIRA,EC1FP,2
DE,LIMBURG,AVSA,2
FR,ST. BRIEUC,RTZFP,2
DE,DIETZENBACH,RTZ,2
BR,RIO DE JANEIRO,BURGUNDY,2
ES,PAMPLONA,ECR,2
GB,EDINBURGH,RTZFLY,2
FR,JOIGNY,ECFP,2
FR,LE HAVRE,RTZFP,2
IL,KIRYAT SHMONA,SHL,2
AT,INNSBRUCK,SXT,2
ES,MOJACAR,ECFP,2
FR,SARLAT LA CANEDA,DERECR,2
DE,ERFURT,ECI,2
IT,SIRACUSA,AVSA,2
IT,SALERNO,AVSA,2
GB,WORCESTER,RTZCA,2
GB,CRAWLEY,RTZCA,2
ES,ALMERIA,EC1,2
FR,LE HAVRE,DERECR,2
PT,BRAGA,NCR,2
FR,BRIVE,NCR,2
SE,LINKOPING,RTZ,2
DE,SCHORNDORF,AVSA,2
DK,SKIVE,ECR,2
AT,KLAGENFURT,ECE,2
FR,ST. NAZAIRE,ECR,2
IT,PERUGIA,DERECR,2
UA,SIMFEROPIL,AVS,2
DE,KARLSRUHE,AVESA,2
CA,EDMONTON,BGT,2
GB,NOTTING HILL,ECR,2
DK,VEJLE,AVS,2
FR,NANTES,PGT,2
DE,SAARBRUECKEN,AVS,2
CH,APPENZELL,AVS,2
DE,DORTMUND,DERAV,2
GB,LEICESTER,AVS,2
DE,ROSTOCK,SXT,2
IT,PESARO,ECR,2
BE,MONS,AVS,2
PL,KATOWICE,NCR2,2
GB,TONBRIDGE,SXT,2
FR,MONTARGIS,ECFP,2
GB,NORWICH,AVS,2
DE,HANAU,ECSA,1
PT,COIMBRA,EC1,1
DE,HOF,SXT,1
GB,BRIGHTON,ECR,1
DE,GOEPPINGEN,AVSA,1
IT,FORLI,AVS,1
GB,TRURO,RTZCA,1
CW,CURACAO,THT,1
GB,WATFORD,RTZCA,1
AU,WAGGA WAGGA,ECR,1
FR,BRIGNOLES,ECFP,1
AU,PARRAMATTA,ECR,1
FR,LESPARRE MEDOC,ECFP,1
DE,BREMERHAVEN,RTZ,1
NZ,AUCKLAND,HUGHES,1
DE,HILDESHEIM,AVS,1
GB,BIRMINGHAM,ECFLYFP,1
DE,OBERURSEL,AVSA,1
SE,RONNEBY,AVS,1
FR,VERSAILLES,NCR,1
DE,ISERLOHN,AVS,1
FR,MILLAU,ECFP,1
FR,ALES,ECR,1
PT,BRAGA,EC1FP,1
DE,HAHN,DERECR,1
DK,FREDERIKSHAVN,DERAV,1
ES,LEON,DERECR,1
HR,PULA,ECR,1
DE,BAD VILBEL,AVESA,1
FR,SETE,ECR,1
DE,MEMMINGEN,AVS,1
FR,COMPIEGNE,ECR,1
DE,WESEL,ECI,1
NL,EMMEN,ECR,1
DE,TRIER,ECSA,1
US,LOS ANGELES,BHLUX,1
NL,ENSCHEDE,RTZ,1
DE,LOERRACH,ECI,1
DE,WEIMAR,RTZ,1
IT,TURIN,DERRTZ,1
DE,MANNHEIM,RTZ,1
DE,FREIBURG,AVSA,1
SE,OREBRO,ECR,1
FR,LOUVIERS,ECR,1
HR,RIJEKA,DERECR,1
FR,GRENOBLE,ECE,1
DE,HALLE,AVS,1
ES,CADIZ,DERECR,1
FR,LA CIOTAT,ECR,1
GB,KIRKWALL,ECFP,1
GB,SLOUGH,RTZFLY,1
IT,SORRENTO,AVDF,1
DE,WERNIGERODE,DERAV,1
NO,TROMSOE,ECR,1
IT,VIAREGGIO,ECSA,1
DE,HAMELN,ECSAFP,1
NL,S HERTOGENBOSCH,ECR,1
DE,ERDING,ECR,1
ES,JEREZ,AV1,1
DE,MAINZ,SXTEAST,1
TR,ALANYA,ECR,1
FR,GENEVA,SXT,1
GB,WOKING,AVS,1
DE,MARBURG,ECSAFP,1
NO,HAUGESUND,ECR,1
IT,ALGHERO,AVSA,1
DE,ESSEN,ECSAFP,1
SE,OSTERSUND,ECR,1
IT,VICENZA,ECE,1
AU,PORT MACQUARIE,RTZFP,1
DK,KARUP,RTZ,1
DK,HERNING,DERECR,1
IT,TERNI,ECSA,1
AU,AYERS ROCK,RTZFP,1
DE,FULDA,AVSA,1
GB,STRATFORD UPON AVON,RTZCA,1
FR,BONIFACIO,ECFP,1
DE,HALLE,AVSA,1
DE,AUGSBURG,ECSA,1
IT,FERRARA,ECDF,1
DE,OFFENBURG,AVE,1
GB,HOLYHEAD,RTZ,1
DE,SALZGITTER,ECFP,1
DE,SCHWEINFURT,AVS,1
NL,AMERSFOORT,DERAV,1
ES,BADALONA,AVFP,1
NO,BRONNOYSUND,ECR,1
DE,FLENSBURG,ECSAFP,1
DE,AACHEN,NCR,1
ES,NERJA,AVFP,1
DE,FREUDENSTADT,ECI,1
GR,HERSONISSOS,ECR,1
GB,SWANSEA,ECRWEB,1
CY,LARNACA,ECR,1
DE,LANDSBERG,ECFP,1
HR,ZAGREB,DERSXT,1
DE,BAD HOMBURG,ECIFP,1
IT,RIVA DEL GARDA,AVS,1
IT,POZZUOLI,AVSA,1
GB,TAUNTON,ECR,1
GR,VOLOS,ECR,1
GR,KALAMATA,RTZ,1
FR,NANCY,DERECR,1
PT,ALBUFEIRA,ECR,1
GB,CARDIFF,RTZ,1
DE,HEIDELBERG,AVESA,1
DE,GIESSEN,ECIESA,1
GR,LESVOS,AEU,1
AU,BURNIE,RTZFP,1
DE,MEININGEN,AVS,1
FI,MAARIANHAMINA,ECR,1
DK,HIRTSHALS,DERECR,1
DE,OSNABRUECK,AVSA,1
ES,BADAJOZ,AVFP,1
DE,ULM,AVSA,1
CH,VEVEY,RTZ,1
CH,MONTREUX,RTZ,1
FR,SAINTES,ECFP,1
AU,PARABURDOO,RTZ,1
GB,EDINBURGH,ECFLYFP,1
DE,EISENACH,SXTEAST,1
CH,LAUSANNE,DERRTZ,1
FR,VICHY,ECFP,1
GB,FALMOUTH,ECR,1
PT,ESTORIL,AVFP,1
BE,OSTEND,DERECR,1
DE,TRAUNSTEIN,DERECR,1
DK,BORNHOLM,RTZ,1
PT,COIMBRA,AVS,1
DE,OSNABRUECK,ECFP,1
GB,LINCOLN,ECFP,1
DE,BAD VILBEL,AVS,1
PT,TOMAR,ECR,1
DE,FLENSBURG,SXT,1
DE,FREIBURG,SXT,1
FR,SALON DE PROVENC,ECFP,1
DE,LUDWIGSHAFEN,RTZ,1
ZA,NEWLANDS,AVS,1
FR,CHALONS EN CHAMPAGNE,ECFP,1
DE,OSNABRUECK,SXT,1
SI,MARIBOR,AVS,1
GB,STEVENAGE,ECR,1
MX,TAPACHULA,THT,1
IT,PARMA,AVS,1
FR,MELUN,ECR,1
DK,KOLDING,AVS,1
DE,STADTHAGEN,RTZ,1
GB,SWINDON,ECRWEB,1
DE,ASCHAFFENBURG,ECIFP,1
AT,INNSBRUCK,DERAV,1
FR,DAX,DERECR,1
DE,WILHELMSHAVEN,ECIFP,1
GR,SKIATHOS,ECR,1
NO,TROMSOE,AVS,1
DE,TRIER,ECI,1
AU,PRESTON,RTZFP,1
EG,CAIRO,BURGUNDY,1
NO,DRAMMEN,ECR,1
DE,BAD HERSFELD,AVS,1
GB,GRIMSBY,NCRWEB,1
IT,LIVORNO,DERECR,1
SE,KRISTIANSTAD,AVS,1
GR,IOANNINA,AEUNCR,1
DE,RODGAU,RTZ,1
PT,FARO,AV1FP,1
DE,WETZLAR,DERAV,1
IT,BOLOGNA,DERECR,1
FR,GRENOBLE,DERRTZ,1
IS,EGILSTADIR,AVS,1
MY,KOTA BHARU,AVS,1
IT,BOLZANO,DERAV,1
DE,BAD NEUSTADT,ECR,1
CH,ZURICH,BGTFLY,1
DE,AUGSBURG,AVSA,1
NL,GELEEN,RTZ,1
DE,BADEN BADEN,ECSA,1
DE,BAD TOELZ,ECFP,1
DE,WOLFSBURG,ECR,1
IT,LATINA,ECR,1
FR,ROCHEFORT,ECFP,1
BE,BRUSSELS,NCE,1
IT,VARESE,AVS,1
FI,KAJAANI,BGT,1
GB,HARROGATE,NCR,1
FR,ANNECY,RTZFP,1
GB,SWANSEA,ECR,1
DE,DUSSELDORF,BGT,1
DE,WUERZBURG,DERRTZ,1
GB,DOVER,DERECR,1
DE,DUSSELDORF,DERAVE,1
FR,LIMOGES,DERRTZ,1
IT,TAORMINA,DERECR,1
IT,SPOLETO,AVSA,1
RO,BUCHAREST,DERECR,1
GB,YORK,DERECR,1
SE,LUDVIKA,RTZ,1
FR,CASTRES,ECFP,1
IT,TRAPANI,ECSA,1
DE,LINDAU,NCRSA,1
IT,MESSINA,DERAV,1
DE,GOERLITZ,AVSA,1
IT,TURIN,AERDF,1
PT,GUARDA,EC1FP,1
GB,WALSALL,NCRWEB,1
ES,CACERES,DERECR,1
GB,ABERDEEN,VALCHF,1
ES,LA CORUNA,DERAV,1
ZA,RICHARDS BAY,BGT,1
GB,YORK,DERRTZ,1
ES,JAEN,ECFP,1
DK,VOJENS,AVS,1
PT,ABRANTES,EC1FP,1
DE,DRESDEN,NCR,1
FR,EVREUX,ECR,1
CH,ST. MORITZ,ECFP,1
IT,SAN REMO,ECE,1
DE,HEIDENHEIM,AVSA,1
PT,AMADORA,AVS,1
DE,ANSBACH,ECFP,1
GB,NOTTINGHAM,ECFP,1
ZA,STELLENBOSCH,BGT,1
IT,TRIESTE,ECFLY,1
DE,AUGSBURG,DERAV,1
GB,HARLINGTON,NCRWEB,1
ZA,BLOEMFONTEIN,AVS,1
DE,BREMEN,DERNCR,1
GB,LIVERPOOL,ECFLYFP,1
DE,KARLSRUHE,AVE,1
DE,WIESBADEN,DERAV,1
GB,PRESTON,DERECR,1
GB,PORTSMOUTH,DERNCR,1
IT,LUCCA,DERRTZ,1
AU,GLADSTONE,RTZ,1
DE,DORTMUND,DERECR,1
DE,HAMBURG,BGE,1
IT,PADOVA,AVSA,1
DE,FULDA,ECR,1
DE,MANNHEIM,DERECR,1
ZA,SOWETO,AVS,1
GB,DOVER,DERNCR,1
MX,MEXICO CITY,THT,1
ES,CIUDAD REAL,AVFP,1
DE,LOERRACH,AVSA,1
FR,CHERBOURG,DERRTZ,1
NL,HOOFDDORP,NCRWEB,1
GB,GLOUCESTER,DERNCR,1
DE,CUXHAVEN,AVS,1
DE,HEIDELBERG,DERRTZ,1
ES,DENIA,DERAV,1
FR,GENEVA,ECE,1
NA,WINDHOEK,BGT,1
DE,POTSDAM,DERECR,1
FR,MULHOUSE,DERECR,1
GB,WOLVERHAMPTON,NCRWEB,1
DE,TUTTLINGEN,ECFP,1
DE,HOF,ECIFP,1
AU,TAMWORTH,RTZ,1
DE,KAISERSLAUTERN,ECSAFP,1
GB,ABERDEEN,AVS,1
DE,WEIDEN,ECR,1
IT,TREVISO,RTZ,1
AU,TAREE,RTZFP,1
GB,MANCHESTER,DERRTZ,1
GB,CREWE,AVS,1
AU,NEWCASTLE AU,ECR,1
FR,TOULOUSE,ECFLY,1
DE,HEINSBERG,ECFP,1
HR,UMAG,SXT,1
DE,BERLIN,BGT,1
DE,MUNICH,NCRSA1,1
AU,TOWNSVILLE,RTZ,1
DE,INGOLSTADT,DERECR,1
DE,FREISING,AVS,1
GB,DUNDEE,AVS,1
DE,DRESDEN,ECI,1
DE,FRANKFURT,AVP,1
CH,ZURICH,DERRTZ,1
ZA,SUN CITY,AVS,1
DE,HANAU,ECR,1
ES,ORENSE,DERAV,1
GB,SWINDON,RTZCA,1
ES,MADRID,AVS,1
ZA,PLETTENBERG BAY,NCR2,1
GB,PETERBOROUGH,ECFP,1
GR,LEFKADA,AEU,1
DE,FREILASSING,DERECR,1
DE,BONN,DERAV,1
GB,NOTTINGHAM,AVS,1
PT,CASCAIS,NCR1,1
GB,YEOVIL,NCRWEB,1
DE,WORMS,ECR,1
SE,RONNEBY,RTZ,1
GB,NOTTINGHAM,DERNCR,1
DE,REUTLINGEN,AVS,1
FR,TOULOUSE,BGT,1
DE,ASCHAFFENBURG,RTZ,1
GB,BLACKPOOL,ECFP,1
DE,MANNHEIM,AVE,1
FR,BORDEAUX,BGT,1
DE,SINDELFINGEN,ECFP,1
CH,GLATTBRUG,AVS,1
CR,TAMARINDO BEACH,THT,1
FR,GRAY,ECFP,1
IT,VIESTE,AVS,1
GB,BRIGHTON,AVS,1
DE,HAHN,NCE,1
GR,CORFU,DERECR,1
GB,PETERBOROUGH,DERNCR,1
DE,KIRCHHEIM,ECR,1
NO,AANDALSNES,RTZ,1
FR,GENEVA,ECFLY,1
ZA,MANZINI,AVS,1
GB,EAST MIDLANDS,RTZCA,1
ES,FERROL,EC1,1
DE,ANSBACH,DERRTZ,1
AU,BURNIE,ECR,1
DE,MURNAU,AVS,1
IT,CASALE MONFERRATO,ECSA,1
NO,TRONDHEIM,AVS,1
GB,SHEFFIELD,RTZ,1
CH,CRANS MONTANA,ECR,1
DE,KEHL,DERECR,1
ES,BARCELONA,ECRLAC,1
GB,STOKE ON TRENT,AVS,1
NZ,PALMERSTON,RTZ,1
DE,COBURG,AVS,1
ES,PUERTO CRUZ,AVFP,1
AT,KLAGENFURT,AVE,1
PT,COIMBRA,ECFP,1
DE,BADEN BADEN,AVE,1
NZ,PAIHIA,ECR,1
DE,NUREMBERG,DERSXT,1
GB,TEESSIDE,DERECR,1
DE,HAMM,ECFP,1
AU,DARWIN,RTZ,1
DE,BERLIN,RTZSA,1
IT,FIUMICINO,ECSA,1
HR,SPLIT,ECE,1
DE,LANDSHUT,AVSA,1
DE,ESSLINGEN,SXT,1
IT,POZZALLO,ECR,1
PT,ESTORIL,AV1FP,1
IT,LECCE,ECSA,1
GB,COLCHESTER,RTZ,1
IS,ISAFJORDUR,AVS,1
IT,GIULIANOVA,AVS,1
DE,WUPPERTAL,ECFP,1
PT,PORTO,AV1,1
DE,KIEL,ECI,1
UY,COLONIA,ECR,1
DE,BERLIN,DERNCE,1
CH,FRAUENFELD,ECR,1
FR,LE LUC EN PROVENCE,ECFP,1
ZZ,BELGRADE,AVS,1
IT,SAN BENEDETTO D.T,ECR,1
DE,GIESSEN,ECI,1
LT,KLAIPEDA,UNIRENT,1
IT,PISA,AERSA,1
GB,DONCASTER,NCR,1
NZ,WANGANUI,BGFP,1
SI,MARIBOR,NCR,1
IT,OLBIA,AERDF,1
DE,CELLE,AVS,1
IT,SIENA,AVDF,1
DE,ESSLINGEN,AVE,1
DE,PFORZHEIM,ECR,1
IT,IVREA,AVS,1
DE,BONN,RTZE,1
IT,VENICE,AERDF,1
CH,LUCERNE,AVE,1
NL,EMMEN,AVS,1
DE,BONN,SXT,1
GB,COVENTRY,AVS,1
GB,GLOUCESTER,ECR,1
DE,MAINZ,DERECR,1
FR,BESANCON,DERECR,1
IT,UDINE,AVS,1
FR,NANTES,DERRTZ,1
FR,MARSEILLE,DERRTZ,1
GB,LIVERPOOL,DERNCR,1
IT,ACIREALE,AVS,1
DE,ERFURT,ECR,1
FR,ST. TROPEZ,ECLXFP,1
ZA,UPINGTON,AVS,1
FR,DINAN,RTZFP,1
DE,CHEMNITZ,ECFP,1
IE,KERRY,ECRIK,1
CH,INTERLAKEN,DERECR,1
DE,SINDELFINGEN,AVSA,1
HR,RIJEKA,RTZ,1
FI,LAPPEENRANTA,ECR,1
GB,EASTBOURNE,NCRWEB,1
IT,TERMOLI,ECR,1
IT,CIVITAVECCHIA,ECRZA,1
GB,HULL,NCR,1
IT,COLLEFERRO,AVS,1
DE,SIEGBURG,ECFP,1
FR,LILLE,ECFLY,1
IT,SANTA TERESA,ECR,1
DK,FARUM,ECR,1
IT,ALBA,ECSA,1
PT,PORTIMAO,NCR,1
DE,BONN,NCR,1
ZA,KIMBERLEY,AVS,1
NO,KRISTIANSUND,RTZFP,1
DE,NEUSS,SXT,1
IT,REGGIO EMILIA,AVS,1
GB,MIDDLESBROUGH,DERNCR,1
DE,ANSBACH,DERECR,1
DE,KREFELD,ECR,1
DE,DESSAU,ECR,1
DE,REMSCHEID,ECR,1
DE,BITBURG,ECR,1
DE,REUTLINGEN,ECFP,1
PT,CASCAIS,EC1,1
DE,LANDSBERG,ECR,1
FR,MOULINS,ECFP,1
NZ,HAMILTON,BGFP,1
GR,IOANNINA,AEU,1
DE,ST. WENDEL,SXT,1
GB,PLYMOUTH,DERECR,1
DE,ESSEN,DERRTZ,1
DE,MUENSTER,AVSA,1
GB,NORTHAMPTON,ECFLYFP,1
FR,BANDOL,DERECR,1
IT,SORRENTO,ECDF,1
DE,KONSTANZ,DERECR,1
ES,VALLADOLID,ECR,1
DE,PASSAU,AVSA,1
IT,PERUGIA,ECE,1
DE,HANOVER,DERNCE,1
DE,ASCHAFFENBURG,SXT,1
IT,BELLUNO,ECR,1
DE,COLOGNE,AVESA,1
ES,JEREZ,DERRTZ,1
FR,ST. GAUDENS,ECFP,1
MK,TETOVO,ECR,1
DE,ERLANGEN,RTZ,1
DE,FREIBURG,ECI,1
DE,DEGGENDORF,ECR,1
DE,WUERZBURG,ECIFP,1
GB,MILTON KEYNES,RTZ,1
DE,HARBURG,AVSA,1
DE,WARREN MUERITZ,AVS,1
DE,WAIBLINGEN,ECR,1
GB,BASINGSTOKE,ECFP,1
DE,GIESSEN,NCR,1
ES,MALAGA,ECFLY,1
IT,BERGAMO,AVE,1
DE,ANSBACH,ECIFP,1
FR,ABBEVILLE,ECR,1
CH,GENEVA,DERRTZ,1
DE,AUGSBURG,AVE,1
GB,GLOUCESTER,AVS,1
DE,BAYREUTH,ECI,1
FR,VALENCIENNES,ECFP,1
FR,ARRAS,ECFP,1
GR,CORFU,AEU,1
ES,ALCUDIA,AVFP,1
DE,MAINASCHAFF,AVS,1
FR,SALLANCHES,ECFP,1
DE,KOBLENZ,ECIFP,1
IT,CESENA,AVS,1
SE,KISTA,AVS,1
DE,HEINSBERG,ECR,1
DE,FRANKFURT ODER,AVS,1
FR,ABBEVILLE,ECFP,1
DE,AHRENSBURG,ECFP,1
ZA,SEA POINT,AVS,1
FR,ANTIBES,DERECR,1
IT,VERONA,RTZSA,1
DE,PADERBORN,AVE,1
CH,CHUR,DERECR,1
MX,LA PAZ,THT,1
FR,METZ,ECR,1
DE,OBERHAUSEN,AVE,1
GB,NEWPORT,NCRWEB,1
IT,ASTI,DERAV,1
IT,L AQUILA,DERECR,1
FR,PARIS,AVCAMP,1
DE,NUREMBERG,DERAVE,1
FR,TOULOUSE,DERRTZ,1
ZA,POTCHEFSTROOM,AVS,1
GR,PARGA,RTZ,1
FR,FERNEY VOLTAIRE,PGT,1
FR,BERNAY,ECFP,1
DE,UELZEN,ECSA,1
HU,SZEGED,BGT,1
BE,OOSTENDE,ECR,1
ES,MAJADAHONDA,AVFP,1
FR,JARNAC,ECR,1
FR,LE HARVE,NCR,1
GB,TAMWORTH,NCRWEB,1
NO,EVENES,ECR,1
NL,AMSTERDAM,DERAVE,1
FR,GENEVA,DERRTZ,1
FR,AIX EN PROVENCE,ECFLY,1
ES,MURCIA,ECFP,1
IT,ANCONA,DERAV,1
DE,BAD HOMBURG,SXT,1
DE,MOSBACH,DERAV,1
FR,BOURG EN BRESSE,ECFP,1
DE,LOERRACH,DERECR,1
PT,COIMBRA,DERECR,1
DE,BAYREUTH,AVSA,1
GR,THESSALONIKI,AEU,1
IT,SALERNO,DERECR,1
SE,VAXJO,RTZ,1
GB,TONBRIDGE,ECFP,1
BE,GENT,AVS,1
DE,SCHWEINFURT,AVSA,1
GB,WELWYN GARDEN,RTZ,1
DE,NIEDERHHEIM,AVE,1
DE,NUREMBERG,BGT,1
SE,SKOVDE,AVS,1
DE,ALTENBURG,ECFP,1
SE,SODERTALJE,AVS,1
SE,HARNOSAND,RTZ,1
DE,WEIDEN,ECI,1
CH,ZERMATT TAESCH,DERRTZ,1
DE,ANSBACH,ECSA,1
DE,FREIBURG,ECSA,1
GR,THASSOS,ECR,1
DE,GRUENSTADT,AVS,1
IT,ALGHERO,ECSA,1
AE,DUBAI,BURGUNDY,1
DE,BOCHUM,AVS,1
DE,RENDSBURG,DERECR,1
IT,LIVORNO,ECSA,1
HR,SUPETAR,ECR2,1
FR,DAX,RTZFP,1
DE,BAMBERG,AVSA,1
ES,IBIZA,DERAV,1
FR,LE MANS,DERECR,1
FR,ORLEANS,DERECR,1
GR,PAROS,AEU,1
SE,KARLSTAD,DERAV,1
NL,AMSTERDAM,DERNCE,1
GB,NEWPORT,DERECR,1
IT,VERONA,DERECR,1
SE,SUNDSVALL,RTZ,1
NL,HAARLEM,AVE,1
GB,WAKEFIELD,NCR,1
GB,MAIDSTONE,RTZ,1
IT,PADOVA,ECE,1
FR,CARCASSONNE,DERECR,1
NL,GRONINGEN,DERRTZ,1
IT,VICENZA,DERECR,1
DE,SINGEN,AVSA,1
FR,BRIVE,DERECR,1
GB,REDDITCH,NCR,1
NO,GJOVIK,ECR,1
DE,VILLINGEN,AVSA,1
IT,BARI,AERSA,1
PT,AVEIRO,ECR,1
DE,ITZEHOE,AVS,1
DE,MAGDEBURG,AVS,1
BE,LIEGE,ECFP,1
FR,MACON,DERECR,1
IE,CORK,DERAV,1
IT,SIENA,DERRTZ,1
ES,OVIEDO,DERAV,1
DE,COTTBUS,ECFP,1
ZA,BLOEMFONTEIN,NCR2,1
IT,CUNEO,AVS,1
DE,ARNSBERG,AVS,1
FR,CARPENTRAS,ECFP,1
IT,CEFALU,AVS,1
GB,WOLVERHAMPTON,ECRWEB,1
CH,INTERLAKEN,ECFP,1
ES,PAMPLONA,AVWEB,1
GB,NORTHAMPTON,NCRWEB,1
DE,BAD KREUZNACH,ECIFP,1
IE,KERRY,DERNCR,1
CH,LAUSANNE,ECFP,1
IT,CASTROVILLARI,ECR,1
DE,KOENIGSBRUNN,NCRSA,1
ES,SANTANDER,AVWEB,1
GB,WOKING,ECRWEB,1
IT,CATANIA,ECFLY,1
DE,MIESBACH,AVSA,1
DE,ZITTAU,AVS,1
FR,ROSCOFF,ECR,1
DE,SCHWEINFURT,ECIFP,1
GB,COVENTRY,DERNCR,1
DE,WESTERLAND,ECR,1
IT,SORRENTO,ECFLY,1
DE,BADEN BADEN,AVSA,1
GB,BRIGHTON,NCRWEB,1
US,ORLANDO,THTSA,1
FR,ST. BRIEUC,DERECR,1
ES,SEGOVIA,DERAV,1
DE,SAARBRUECKEN,DERECR,1
GB,LIVERPOOL,AVS,1
DK,AABENRAA,ECR,1
FR,LEVALLOIS,ECR,1
ES,VALENCIA,EC1FP,1
NO,LEKNES,RTZ,1
GB,GLOUCESTER,DERECR,1
TR,GAZIANTEP,ECR,1
DE,SAARBRUECKEN,DERAV,1
NO,STAVANGER,DERRTZ,1
GB,BATH,DERECR,1
IT,VERONA,DERRTZ,1
DE,DRESDEN,DERECR,1
IT,BOLOGNA,ECFLY,1
PT,VILAMOURA,ECR,1
FR,PONTOISE,ECFP,1
DE,STARNBERG,ECFP,1
IT,TAORMINA,AVDF,1
DE,FRIEDRICHSHAFEN,NCRWEB,1
DE,ROSENHEIM,ECFP,1
FR,ARCACHON,ECR,1
DE,PIRMASENS,ECR,1
GB,DURHAM TEES VALLEY,AVS,1
DE,CHEMNITZ,AVSA,1
DE,ISMANING,AVSA,1
DE,GOTHA,AVSA,1
DE,REGENSBURG,AVSA,1
DE,BONN,DERNCR,1
DE,GELSENKIRCHEN,AVS,1
GB,LONDON,RTZFLY,1
DE,FREILASSING,AVESA,1
IT,CASERTA,AVSA,1
IT,SASSARI,ECR,1
GR,LEPTOKARIA,ECR,1
GB,DARLINGTON,ECFP,1
GB,OLDHAM,RTZ,1
CH,SCHAFFHAUSEN,ECR,1
CH,GENEVA,BGTFLY,1
ES,TARRAGONA,DERAV,1
PT,LISBON,DERAV,1
ES,MERIDA,AVFP,1
DE,HEIDELBERG,SXTEAST,1
DE,KREFELD,SXT,1
DE,REGENSBURG,RTZE,1
NZ,AUCKLAND,MAUINZ,1
AU,ST KILDA,ECR,1
IT,BOLOGNA,ECDF,1
DE,FULDA,DERECR,1
GB,CARLISLE,DERNCR,1
PT,ARMACAO DE PERA,EC1FP,1
IT,LAMEZIA TERME,ECFLY,1
FR,CLERMONT,RTZFP,1
IT,LUCCA,AVSA,1
TT,TRINIDAD,THT,1
GB,INVERNESS,DERRTZ,1
ZA,RIVONIA,AVS,1
AU,ECHUCA,ECR,1
IT,VIAREGGIO,DERAV,1
PL,GDANSK,AVS,1
DE,HILDESHEIM,ECFP,1
PT,PRAIA DA ROCHA,AVS,1
DE,ERDING,ECI,1
IT,LAMEZIA TERME,DERAV,1
DE,MURNAU,AVSA,1
DE,KEHL,ECFP,1
DE,RASTATT,AVS,1
DE,EMDEN,SXT,1
GR,THESSALONIKI,DERECR,1
DE,NORDERSTEDT,SXT,1
IT,SPOLETO,DERAV,1
CA,QUEBEC CITY,BGT,1
ES,MALAGA,AV1,1
DE,BAYREUTH,ECFP,1
HU,BUDAPEST,DERNCE,1
SE,MALMO,DERAV,1
FR,CALAIS,ECE,1
AU,AYERS ROCK,RTZ,1
GR,MOLYVOS,ECR,1
FR,CAGNES SUR MER,ECLXFP,1
BE,KORTRIJK,ECR,1
FR,REDON,DERECR,1
CS,BRNO,BGT,1
TR,SIDE,ECR,1
PL,KRAKOW,DERECR,1
GB,BRADFORD,DERNCR,1
DE,DRESDEN,ECSAFP,1
SE,SKELLEFTEA,ECR,1
PT,AVEIRO,EC1,1
IT,ROME,DERECE,1
GB,PETERBOROUGH,ECRWEB,1
GB,TEESSIDE,RTZCA,1
BG,VARNA,RTZ,1
ES,JEREZ,RTZ,1
DE,GOEPPINGEN,ECFP,1
DE,WESEL,ECFP,1
DE,AACHEN,DERRTZ,1
CH,ST. GALLEN,DERECR,1
DE,PIRNA,DERAV,1
AU,ROCKHAMPTON,RTZFP,1
DE,HAMELN,SXT,1
AT,VILLACH,ECR,1
NO,LILLEHAMMER,ECR,1
BE,LIEGE,DERECR,1
GB,SHEFFIELD,DERNCR,1
NZ,GISBORNE,BGFP,1
FR,ST. QUENTIN EN YVELI,ECR,1
DE,TUEBINGEN,ECFP,1
DE,TRAUNSTEIN,ECI,1
DE,BOCHUM,RTZ,1
FR,ARLES,DERECR,1
GB,BRIGHTON,DERNCR,1
GB,HULL,RTZ,1
IT,OLBIA,ECDF,1
FI,KOKKOLA,BGT,1
DE,DETMOLD,AVSA,1
FR,BEAUNE,DERECR,1
FR,EPINAY SUR SEINE,ECFP,1
ES,SANTA CRUZ DE TENERI,AVFP,1
DE,TUTTLINGEN,ECR,1
BE,NAMUR,ECR,1
FR,MANTES LA JOLIE,NCR,1
DE,GUENZBURG,ECIFP,1
CA,WINNIPEG,THT,1
DE,MANNHEIM,SXT,1
DE,WUPPERTAL,AVSA,1
DE,STUTTGART,AVESA,1
DE,HANOVER,DERAVE,1
GB,STAFFORD,ECFP,1
GB,ORPINGTON,DERNCR,1
DE,STARNBERG,ECSAFP,1
DE,FUERTH,DERECR,1
DE,NUREMBERG,ECSAFP,1
DE,ALSFELD,ECFP,1
DE,NEUSTADT,AVSA,1
ZA,WELKOM,AVS,1
DE,UNTERSCHLEISSHE,AVS,1
DE,LUEBECK,ECSAFP,1
DE,BRAUNSCHWEIG,RTZ,1
DE,BENSHEIM,ECR,1
GB,READING,DERNCR,1
FR,MORLAIX,RTZFP,1
DE,MAINASCHAFF,AVSA,1
FR,LACANAU OCEAN,ECFP,1
DE,HANAU,ECFP,1
ES,BENIDORM,AVWEB,1
DE,DRESDEN,NCE,1
DE,KAISERSLAUTERN,ECSA,1
CH,LUGANO,AVE,1
AE,ABU DHABI,AVS,1
DE,LUENEN,ECR,1
CH,ST. MORITZ,DERECR,1
DE,MARKT SCHWABEN,AVE,1
DK,THISTED,AVS,1
PT,VIVANA DO CASTELO,ECFP,1
IT,ALATRI,AVS,1
IT,URBINO,ECR,1
FI,TAMPERE,DERECR,1
DE,SCHWERIN,ECFP,1
CA,OTTAWA,THT,1
ES,JEREZ,ECFP,1
BE,BRUGGE,DERECR,1
IT,PIACENZA,AVS,1
DE,FRIEDRICHSHAFEN,NCRSA,1
DE,LEIPZIG,INTERLINE,1
GR,ALEXANDROUPOLIS,AEU,1
GB,DARTFORD,NCR,1
DE,BRAUNSCHWEIG,SXT,1
DE,DORTMUND,SXTEAST,1
DE,WEDEL,ECSA,1
DK,KOLDING,DERECR,1
GB,BATH,DERRTZ,1
NZ,PALMERSTON NORTH,ECR,1
DE,KOBLENZ,ECSA,1
NO,KRISTIANSAND,DERRTZ,1
IT,LAMEZIA TERME,DERECR,1
IT,FOLIGNO,AVSA,1
DE,BIBERACH,RTZ,1
ES,VALENCIA,DERAV,1
FR,CHERBOURG,DERECR,1
DE,RAMSTEIN,DERECR,1
FR,SENS,DERECR,1
GB,BASILDON,DERNCR,1
ES,VIGO,DERAV,1
DE,BRANDENBURG,AVS,1
DE,ERFURT,RTZ,1
GB,WOLVERHAMPTON,DERNCR,1
ES,LAS ROZAS,AVFP,1
IT,VENICE,AERSA,1
DE,FRANKENTHAL,AVS,1
CH,VERBIER,RTZ,1
GB,DARLINGTON,NCRWEB,1
DE,FREILASSING,ECI,1
DE,WIESBADEN,AVE,1
DE,HANOVER,ECSA,1
DE,ROSENHEIM,AVE,1
DE,VILLINGEN,AVS,1
FR,NIORT,ECR,1
GB,FINCHLEY,NCRWEB,1
ZA,HOEDSPRUIT,BGT,1
FR,MULHOUSE,ECE,1
DE,STADE,ECR,1
IT,TORINO,ECSA,1
NO,ALTA,RTZ,1
DE,KOBLENZ,ECI,1
GR,KERKYRA,AEU,1
DE,MERSEBURG,ECR,1
IT,SAVONA,ECE,1
DE,AACHEN,ECSA,1
DE,AHRENSBURG,AVSA,1
FR,ANNEMASSE,ECR,1
BE,GENT,DERECR,1
DE,WUERZBURG,SXT,1
IT,TRIESTE,ECDF,1
DE,NEUMUENSTER,AVSA,1
ES,ZARAGOZA,EC1FP,1
FR,VILLENEUVE SUR LOT,DERECR,1
DE,NIENBURG,AVSA,1
IT,REGGIO CALABRIA,RTZ,1
ES,OVIEDO,EC1FP,1
IT,RAVENNA,DERAV,1
ES,GRANADA,EC1,1
NO,BERGEN,BISCHF,1
GB,STANSTED,DERNCR,1
DE,FREUDENSTADT,ECR,1
DE,REUTLINGEN,AVSA,1
US,MIAMI,DLGDSA,1
DE,BAMBERG,ECFP,1
ES,FUENGIROLA,AVWEB,1
PR,FAJARDO,THT,1
ES,SEVILLA,AVS,1
DE,MANNHEIM,ECSAFP,1
ZA,RANDBURG,AVS,1
DE,DRESDEN,ECIESAFP,1
DE,NUREMBERG,NCE,1
DE,ESSEN,RTZ,1
DE,MEPPEN,AVS,1
GB,YORK,DERNCR,1
DE,MUENSTER,ECIFP,1
PL,LODZ,NCR2,1
ES,CACERES,AVFP,1
IT,VENICE,DERECE,1
ES,GRANADA,AEMCHF,1
DE,MARKTREDWITZ,ECFP,1
DE,MEISBACH,AVS,1
SI,PORTOROZ,RTZ,1
DE,WITTENBERG,RTZ,1
IT,TRAPANI,RTZ,1
IT,OSTIA LIDO,ECSA,1
IT,SAN BENEDETTO DT,AVS,1
DE,KOBLENZ,DERAV,1
IT,PISA,AVDF,1
ZA,NELSPRUIT,NCR2,1
SE,ANGELHOLM,ECR,1
IT,CASALE MONFERRATO,ECR,1
DE,PFORZHEIM,DERECR,1
DE,ROTH,ECFP,1
GB,STOCKPORT,NCR,1
IT,COMO,ECRZA,1
ES,ORENSE,ECR,1
ES,MALAGA,AVS,1
IT,VARESE,DERAV,1
ZA,HERMANUS,AVS,1
DE,ODER,ECFP,1
DE,GIESSEN,AVSA,1
DE,KIEL,AVE,1
DE,TUTTLINGEN,ECI,1
GB,DONCASTER,RTZ,1
DE,ERLANGEN,ECR,1
FR,SAINTES,ECR,1
DE,DUSSELDORF,SXTEAST,1
PL,GDANSK,NCR2,1
DE,ROSTOCK,ECE,1
IT,TREVISO,ECFLY,1
FI,KAJAANI,ECR,1
FR,PARIS,RENAULT,1
PT,VISEU,NCR,1
DE,KOBLENZ,RTZ,1
PT,LEIRIA,ECFP,1
FR,RODEZ,ECR,1
FR,SAVERNE,ECFP,1
SE,ESKILSTUNA,AVS,1
GB,LIVERPOOL,ECR,1
IT,TORINO,DERECR,1
DO,BAVARO,ECR,1
ES,ORENSE,AVFP,1
NZ,INVERCARGILL,BGFP,1
GB,NORTHAMPTON,ECFP,1
AU,BLACKBURN,ECR,1
DE,FREIBERG,AVESA,1
AT,INNSBRUCK,AVE,1
DE,BREMERHAVEN,ECIFP,1
FR,DIEPPE,RTZFP,1
FR,LE CREUSOT,ECFP,1
CH,CHUR,AVE,1
GB,SUNDERLAND,NCR,1
DE,SAARBRUECKEN,ECIFP,1
CH,THUN,AVS,1
ES,GERONA,ECR,1
DE,UEBERLINGEN,ECFP,1
MX,MANZANILLO,THT,1
DE,GERA,AVS,1
IT,TORINO,ECFLY,1
DE,BOCHUM,AVSA,1
DE,KEHL,ECIFP,1
IT,COMO,DERAV,1
PT,PICO,AVS,1
ES,ALBACETE,AVFP,1
IT,CHIUSI,DERRTZ,1
SE,JONKOPING,AVS,1
TR,KUSADASI,ECR,1
CH,OPFIKON GLATTBRUGG,RTZ,1
BE,BRUSSELS,DERRTZ,1
DE,MEISBACH,AVSA,1
GB,OXFORD,DERECR,1
SI,KOPER,RTZ,1
DE,RAVENSBURG,DERRTZ,1
NO,SOGNDAL,RTZFP,1
PT,COVILHA,EC1,1
SE,BORLANGE,AVS,1
AU,SOUTH MELBOURNE,ECR,1
DE,HEIDELBERG,DERAV,1
GB,NEW MALDEN,ECFP,1
FR,AVIGNON,ECRLX,1
DE,PADERBORN,DERECR,1
DE,BAD HOMBURG,RTZ,1
DE,REGENSBURG,AVESA,1
DK,SILKEBORG,ECR,1
FR,STRASBOURG,DERRTZ,1
PT,ALBUFEIRA,NCR,1
DE,HANAU,RTZ,1
