"Select basesys, count(*) From vouchandqueue group by 1",
this is all releases 1-n,

basesys,(count(*))
AUS,"230,078.00"
CANA,"404,753.00"
EURO,"647,107.00"
HOHO,"279,848.00"
HOT,"245,907.00"
KEM,"138,802.00"
LAC,"10,673.00"
NEWZ,"2,642.00"
UK,"772,464.00"
USA,"2,239,506.00"
,
,"4,971,780.00"
